// EVENT 4191
Name "Orc Girl"

If(0,25,1)
 221()
 PictureClear(5)
 PictureClear(6)
 ShowMessageFace("",0,0,2,0)
 ShowMessage("......")
 242(2)
 Wait(120)
 241(bytes(0x04,0x08,0x6f,0x3a,0x0d,0x52,0x50,0x47,0x3a,0x3a,0x42,0x47,0x4d,0x08,0x3a,0x0a,0x40,0x6e,0x61,0x6d,0x65,0x49,0x22,0x0c,0x63,0x61,0x73,0x74,0x6c,0x65,0x36,0x06,0x3a,0x06,0x45,0x54,0x3a,0x0c,0x40,0x76,0x6f,0x6c,0x75,0x6d,0x65,0x69,0x69,0x3a,0x0b,0x40,0x70,0x69,0x74,0x63,0x68,0x69,0x69))
 EndEventProcessing()
 0()
EndIf()
PictureDisplay(5,"80_orc_st02",0,0,0,0,100,100,255,0)
ShowMessageFace("orc_fc1",1,0,2,1)
ShowMessage("\\n<Hip>Buhihi, you want me to violate you?\nIt's pretty shameful to lust after a pig monster...")
ShowMessageFace("",0,0,2,2)
ShowMessage("\\n<Luka>......")
ShowMessageFace("orc_fc1",1,0,2,3)
ShowMessage("\\n<Hip>All right, come to my room.\nYour other allies might try to kill me if they see me otherwise...")
ShowMessageFace("",0,0,2,4)
ShowMessage("Thus, I follow Hip to her room...")
221()
PictureDisplay(1,"bg195",0,0,0,0,100,100,255,0)
PictureDisplay(5,"80_orc_st01",0,0,0,0,100,100,255,0)
222()
241(bytes(0x04,0x08,0x6f,0x3a,0x0d,0x52,0x50,0x47,0x3a,0x3a,0x42,0x47,0x4d,0x08,0x3a,0x0a,0x40,0x6e,0x61,0x6d,0x65,0x49,0x22,0x09,0x65,0x72,0x6f,0x31,0x06,0x3a,0x06,0x45,0x54,0x3a,0x0c,0x40,0x76,0x6f,0x6c,0x75,0x6d,0x65,0x69,0x69,0x3a,0x0b,0x40,0x70,0x69,0x74,0x63,0x68,0x69,0x69))
ShowMessageFace("orc_fc1",1,0,2,5)
ShowMessage("\\n<Hip>Buhihi, a piggish pussy is going to make you come.\nI'll squeeze out all of your semen with my pussy.")
ShowMessageFace("",0,0,2,6)
ShowMessage("As soon as I enter the room, Hip presses me down.")
ShowMessageFace("orc_fc1",1,0,2,7)
ShowMessage("\\n<Hip>An Orc's pussy is amazing, so you probably won't last even a minute.\nIt's full of folds and creases that rub every inch of you...")
ShowMessageFace("",0,0,2,8)
ShowMessage("\\n<Luka>Ah, aaah...")
ShowMessageFace("",0,0,2,9)
ShowMessage("I'm defenseless before the unexpected assault.")
ShowMessage("She pushes me down and presses her waist against me.")
PictureDisplay(5,"ev_orc_h1",0,0,0,0,100,100,0,0)
PictureMove(5,null,0,0,0,0,100,100,255,0,30,true)
ShowMessageFace("",0,0,2,10)
ShowMessage("Both of her hands cling to my shoulders.")
ShowMessage("Her plump body and huge breasts press against me.")
ShowMessageFace("",0,0,2,11)
ShowMessage("I involuntarily try to grab hold of her as she presses down.")
ShowMessage("No, maybe it's more that I clung to her?")
ShowMessageFace("orc_fc1",1,0,2,12)
ShowMessage("\\n<Hip>All right, time to violate you.\nEven if you cry out, that will just make me get even more aroused♪")
ShowMessageFace("",0,0,2,13)
ShowMessage("\\n<Luka>Ah... Aaah...")
ShowMessageFace("",0,0,2,14)
ShowMessage("Hip presses her opening against my already erect penis.")
ShowMessage("And with a slight push...")
245(bytes(0x04,0x08,0x6f,0x3a,0x0d,0x52,0x50,0x47,0x3a,0x3a,0x42,0x47,0x53,0x08,0x3a,0x0a,0x40,0x6e,0x61,0x6d,0x65,0x49,0x22,0x1e,0x6d,0x6f,0x6e,0x5f,0x68,0x73,0x65,0x61,0x6e,0x30,0x33,0x5f,0x69,0x6e,0x6e,0x65,0x72,0x77,0x6f,0x72,0x6b,0x73,0x5f,0x61,0x33,0x06,0x3a,0x06,0x45,0x54,0x3a,0x0c,0x40,0x76,0x6f,0x6c,0x75,0x6d,0x65,0x69,0x55,0x3a,0x0b,0x40,0x70,0x69,0x74,0x63,0x68,0x69,0x69))
PictureDisplay(5,"ev_orc_h2",0,0,0,0,100,100,255,0)
ShowMessageFace("",0,0,2,15)
ShowMessage("My penis is submerged in her warm insides.")
ShowMessageFace("",0,0,2,16)
ShowMessage("\\n<Luka>Ah, aaaah...! Am-Amazing...!")
ShowMessageFace("",0,0,2,17)
ShowMessage("I raise my voice in surprise at the amazing sensation.")
ShowMessage("As soon as she forced me in, my body is overwhelmed by the warm feeling.")
ShowMessageFace("",0,0,2,18)
ShowMessage("The folds inside of her vagina are in a spiral formation.")
ShowMessage("Every time I move deep inside, the tip of my glans rubs against her textured sides.")
ShowMessageFace("",0,0,2,19)
ShowMessage("\\n<Luka>Hauu...Ah, aaaah...!")
ShowMessageFace("orc_fc1",1,0,2,20)
ShowMessage("\\n<Hip>Buhihi, how does a piggish pussy feel?\nIsn't the tightness and the spirals just the best?")
ShowMessageFace("",0,0,2,21)
ShowMessage("\\n<Luka>D-don't... That's...")
ShowMessageFace("",0,0,2,22)
ShowMessage("Hip's tight vagina presses down on me.")
ShowMessage("I try to pull my waist back to escape the hellish pleasure.")
ShowMessageFace("",0,0,2,23)
ShowMessage("The spiral folds in her vagina push and pull at me as I pull backwards.")
ShowMessage("The tip of my penis is pulled back by the folds in her, sending a spark of pleasure down my spine.")
ShowMessageFace("",0,0,2,24)
ShowMessage("\\n<Luka>Ah, this is...!\nAaaah...!")
ShowMessageFace("",0,0,2,25)
ShowMessage("In the next moment, I feel a rising sensation in my waist.")
ShowMessage("Trying to pull out, my penis instead starts to pulse.")
RunCommonEvent(104)
RunCommonEvent(105)
ShowMessageFace("",0,0,2,26)
ShowMessage("Unable to escape from her vagina, I instead violently climax in her.")
ShowMessage("Instead of escaping, I just ended up coming...")
ShowMessageFace("",0,0,2,27)
ShowMessage("\\n<Luka>Nnngh...I came...")
ShowMessageFace("orc_fc1",1,0,2,28)
ShowMessage("\\n<Hip>Ohh, ohh... What a shameful little boy.\nYou tried to pull out, but came instead?")
ShowMessageFace("orc_fc1",1,0,2,29)
ShowMessage("\\n<Hip>But you still can't get away.\nBecause I still want to violate you more...")
PictureDisplay(5,"ev_orc_h3",0,0,0,0,100,100,255,0)
ShowMessageFace("",0,0,2,30)
ShowMessage("Hip pushes back against me, forcing me back inside her.")
ShowMessage("At the same time, she deeply kisses me.")
ShowMessageFace("",0,0,2,31)
ShowMessage("\\n<Luka>Nnnngg...!")
ShowMessageFace("orc_fc1",1,0,2,32)
ShowMessage("\\n<Hip>I won't forgive bad little children who try to escape.\nI'll start moving my hips, and make you come over and over!")
ShowMessageFace("",0,0,2,33)
ShowMessage("\\n<Luka>Nnnnn!")
ShowMessageFace("",0,0,2,34)
ShowMessage("Hip starts to violently shake her waist.")
ShowMessage("My penis is being treated as no more than a toy inside her...")
ShowMessageFace("",0,0,2,35)
ShowMessage("The spiral folds force hellish pleasure into me.")
ShowMessage("Each time she moves back and forth, incredible stimulation assaults the tip of my penis.")
ShowMessageFace("",0,0,2,36)
ShowMessage("\\n<Luka>Nnnn!")
RunCommonEvent(104)
PictureDisplay(5,"ev_orc_h4",0,0,0,0,100,100,255,0)
RunCommonEvent(105)
ShowMessageFace("",0,0,2,37)
ShowMessage("My semen explodes into Hip's pussy.")
ShowMessage("If she rapes me so violently, there's no way I could endure.")
ShowMessageFace("orc_fc1",1,0,2,38)
ShowMessage("\\n<Hip>Even if you come, I won't stop at all.\nI'll make you come over and over, until you can't even stand.")
ShowMessageFace("",0,0,2,39)
ShowMessage("\\n<Luka>N...no way...Nng... Nnn...!")
ShowMessageFace("",0,0,2,40)
ShowMessage("She blocks me from screaming by kissing me deeper.")
ShowMessage("Her hot vagina tightens around me at the same time.")
ShowMessageFace("",0,0,2,41)
ShowMessage("\\n<Luka>St-Sto... Nnn...!")
ShowMessageFace("",0,0,2,42)
ShowMessage("My body trembles as her spiral folds rub against me.")
ShowMessage("I can't take this intense pleasure...")
RunCommonEvent(104)
PictureDisplay(5,"ev_orc_h5",0,0,0,0,100,100,255,0)
RunCommonEvent(105)
ShowMessageFace("",0,0,2,43)
ShowMessage("I'm lead to another simple ejaculation.")
ShowMessage("Hip's incredible pussy doesn't let me hold back at all.")
ShowMessageFace("orc_fc1",1,0,2,44)
ShowMessage("\\n<Hip>I'm getting a little tired, but...\nI still want to rape you hard!")
ShowMessageFace("",0,0,2,45)
ShowMessage("\\n<Luka>Nnng... Nnnn!")
ShowMessageFace("",0,0,2,46)
ShowMessage("Hip's reckless movements continue in intensity without letting up.")
ShowMessage("I'm overwhelmed by the intense violation.")
ShowMessageFace("orc_fc1",1,0,2,47)
ShowMessage("\\n<Hip>Hora, hora...\nI'll make you come inside me again...!")
ShowMessageFace("",0,0,2,48)
ShowMessage("\\n<Luka>D-don't... Stop...")
ShowMessageFace("",0,0,2,49)
ShowMessage("Even if I try to cry out, she just blocks my voice with a kiss.")
ShowMessage("Her fierce thrusts continue without stopping for even a moment.")
ShowMessageFace("",0,0,2,50)
ShowMessage("In no time at all, my body goes numb as it nears another climax.")
ShowMessage("I can't withstand her for more than even a few seconds...")
RunCommonEvent(104)
PictureDisplay(5,"ev_orc_h6",0,0,0,0,100,100,255,0)
RunCommonEvent(105)
ShowMessageFace("",0,0,2,51)
ShowMessage("I'm not even sure how many times I've come inside Hip.")
ShowMessage("The white proof of my defeat dribbles out of her opening.")
ShowMessageFace("",0,0,2,52)
ShowMessage("\\n<Luka>Nnn...Nnn...")
PictureDisplay(5,"ev_orc_h7",0,0,0,0,100,100,255,0)
246(2)
ShowMessageFace("orc_fc1",1,0,2,53)
ShowMessage("\\n<Hip>Buha... It's overflowing.\nI'm a little tired too...")
ShowMessageFace("",0,0,2,54)
ShowMessage("Finally, Hip's intense movements stop.")
ShowMessage("With a flushed face, Hip's lips part from mine.")
PictureDisplay(5,"ev_orc_h8",0,0,0,0,100,100,255,0)
ShowMessageFace("orc_fc1",1,0,2,55)
ShowMessage("\\n<Hip>You gave me so much seed, so you belong to me now.\nI'm going to rape you whenever I'm frustrated from now on.")
ShowMessageFace("",0,0,2,56)
ShowMessage("\\n<Luka>N...no way... Unnngh...")
ShowMessageFace("",0,0,2,57)
ShowMessage("The continuous ejaculations have left me totally exhausted.")
ShowMessage("No matter what she says, I can't stop her at the moment.")
ShowMessageFace("orc_fc1",1,0,2,58)
ShowMessage("\\n<Hip>Of course, we'll keep it a secret from the others.\nYou know... Some of them are scary.")
ShowMessageFace("",0,0,2,59)
ShowMessage("\\n<Luka>......")
ShowMessageFace("",0,0,2,60)
ShowMessage("With that, I start being treated like a sex slave of Hip.")
ShowMessage("I wonder what would happen if the others found out...?")
221()
PictureClear(5)
ShowMessageFace("",0,0,2,61)
ShowMessage("......")
242(2)
Wait(120)
241(bytes(0x04,0x08,0x6f,0x3a,0x0d,0x52,0x50,0x47,0x3a,0x3a,0x42,0x47,0x4d,0x08,0x3a,0x0a,0x40,0x6e,0x61,0x6d,0x65,0x49,0x22,0x0c,0x63,0x61,0x73,0x74,0x6c,0x65,0x36,0x06,0x3a,0x06,0x45,0x54,0x3a,0x0c,0x40,0x76,0x6f,0x6c,0x75,0x6d,0x65,0x69,0x69,0x3a,0x0b,0x40,0x70,0x69,0x74,0x63,0x68,0x69,0x69))
0()
