﻿// EVENT 7263
Name "Rufa: Defeat"

RunCommonEvent(7000)
PictureDisplay(5,"80_mob_gakusya2_st01",0,0,0,0,100,100,255,0)
PictureClear(6)
ShowMessageFace("mob_gakusya2_fc1",0,0,2,1)
ShowMessage("\\n<Rufa>All right, it's my win!\nMoney, please!")
125(1,0,800)
ShowMessageFace("",0,0,2,2)
ShowMessage("Luka hands over 800G!")
ShowMessageFace("mob_gakusya2_fc1",0,0,2,3)
ShowMessage("\\n<Rufa>Well then, let's battle fuck again, okay?\nI'd love to squeeze your sperm out again! ♪")
If(0,2331,1)
 PictureClear(5)
 241(bytes(0x04,0x08,0x6f,0x3a,0x0d,0x52,0x50,0x47,0x3a,0x3a,0x42,0x47,0x4d,0x08,0x3a,0x0a,0x40,0x6e,0x61,0x6d,0x65,0x49,0x22,0x12,0x64,0x75,0x6e,0x67,0x65,0x6f,0x6e,0x5f,0x74,0x6f,0x73,0x79,0x6f,0x06,0x3a,0x06,0x45,0x54,0x3a,0x0c,0x40,0x76,0x6f,0x6c,0x75,0x6d,0x65,0x69,0x69,0x3a,0x0b,0x40,0x70,0x69,0x74,0x63,0x68,0x69,0x69))
 216(0)
 0()
EndIf()
EndEventProcessing()
0()
