﻿// EVENT 0064
Name "Skill: Play 241-250"

ChangeVariable(11,11,0,2,1,5)
If(1,100,0,241,0)
 If(1,11,0,1,0)
  ShowMessageFace("a_emp_fc1",1,0,2,1)
  ShowMessage("\\n<Priestess>Let nature take its course...")
  ShowMessageFace("",0,0,2,2)
  ShowMessage("Priestess stuffs hair from the three Canaan Sisters into a straw doll...\nShe then nails it to a tree with a long spike!")
  EndEventProcessing()
  0()
 EndIf()
 If(1,11,0,2,0)
  ShowMessageFace("a_emp_fc1",1,0,2,3)
  ShowMessage("\\n<Priestess>Ufufu...")
  ShowMessageFace("",0,0,2,4)
  ShowMessage("Priestess is giggling...")
  EndEventProcessing()
  0()
 EndIf()
 If(1,11,0,3,0)
  ShowMessageFace("a_emp_fc1",2,0,2,5)
  ShowMessage("\\n<Priestess>This is a common psychogenic allergy...")
  313(0,241,0,12)
  ShowMessageFace("",0,0,2,6)
  ShowMessage("Priestess has become paralyzed!")
  EndEventProcessing()
  0()
 EndIf()
 If(1,11,0,4,0)
  ShowMessageFace("a_emp_fc1",1,0,2,7)
  ShowMessage("\\n<Priestess>Here you are, it's bitter, but please...")
  ShowMessageFace("",0,0,2,8)
  ShowMessage("Priestess presents a gift!")
  250(bytes(0x04,0x08,0x6f,0x3a,0x0c,0x52,0x50,0x47,0x3a,0x3a,0x53,0x45,0x08,0x3a,0x0a,0x40,0x6e,0x61,0x6d,0x65,0x49,0x22,0x0a,0x49,0x74,0x65,0x6d,0x31,0x06,0x3a,0x06,0x45,0x54,0x3a,0x0b,0x40,0x70,0x69,0x74,0x63,0x68,0x69,0x69,0x3a,0x0c,0x40,0x76,0x6f,0x6c,0x75,0x6d,0x65,0x69,0x55))
  ChangeInventory_Item(314,0,0,1)
  ShowMessageFace("",0,0,2,9)
  ShowMessage("You obtain a \\ii[314]!")
  EndEventProcessing()
  0()
 EndIf()
 If(1,11,0,5,0)
  ShowMessageFace("a_emp_fc1",1,0,2,10)
  ShowMessage("\\n<Priestess>Would you like to experience the fragrance of flowers...?")
  355("interrupt_skill(2922)")
  EndEventProcessing()
  0()
 EndIf()
 0()
EndIf()
If(1,100,0,242,0)
 If(1,11,0,1,0)
  ShowMessageFace("a_emp_fc1",4,0,2,11)
  ShowMessage("\\n<Priestess>Let nature take its course...")
  ShowMessageFace("",0,0,2,12)
  ShowMessage("Priestess stuffs hair from the three Canaan Sisters into a straw doll...\nShe then nails it to a tree with a long spike!")
  EndEventProcessing()
  0()
 EndIf()
 If(1,11,0,2,0)
  ShowMessageFace("a_emp_fc1",4,0,2,13)
  ShowMessage("\\n<Priestess>Ufufu...")
  ShowMessageFace("",0,0,2,14)
  ShowMessage("Priestess is giggling...")
  EndEventProcessing()
  0()
 EndIf()
 If(1,11,0,3,0)
  ShowMessageFace("a_emp_fc1",5,0,2,15)
  ShowMessage("\\n<Priestess>This is a common psychogenic allergy...")
  313(0,241,0,12)
  ShowMessageFace("",0,0,2,16)
  ShowMessage("Priestess has become paralyzed!")
  EndEventProcessing()
  0()
 EndIf()
 If(1,11,0,4,0)
  ShowMessageFace("a_emp_fc1",4,0,2,17)
  ShowMessage("\\n<Priestess>Here you are, it's bitter, but please...")
  ShowMessageFace("",0,0,2,18)
  ShowMessage("Priestess presents a gift!")
  250(bytes(0x04,0x08,0x6f,0x3a,0x0c,0x52,0x50,0x47,0x3a,0x3a,0x53,0x45,0x08,0x3a,0x0a,0x40,0x6e,0x61,0x6d,0x65,0x49,0x22,0x0a,0x49,0x74,0x65,0x6d,0x31,0x06,0x3a,0x06,0x45,0x54,0x3a,0x0b,0x40,0x70,0x69,0x74,0x63,0x68,0x69,0x69,0x3a,0x0c,0x40,0x76,0x6f,0x6c,0x75,0x6d,0x65,0x69,0x55))
  ChangeInventory_Item(314,0,0,1)
  ShowMessageFace("",0,0,2,19)
  ShowMessage("You obtain a \\ii[314]!")
  EndEventProcessing()
  0()
 EndIf()
 If(1,11,0,5,0)
  ShowMessageFace("a_emp_fc1",4,0,2,20)
  ShowMessage("\\n<Priestess>Would you like to experience the fragrance of flowers...?")
  355("interrupt_skill(2922)")
  EndEventProcessing()
  0()
 EndIf()
 0()
EndIf()
If(1,100,0,243,0)
 If(1,11,0,1,0)
  ShowMessageFace("insects_fc1",1,0,2,21)
  ShowMessage("\\n<Insects>*munch munch*...")
  ShowMessageFace("",0,0,2,22)
  ShowMessage("The Insects are eating some food they stole...")
  EndEventProcessing()
  0()
 EndIf()
 If(1,11,0,2,0)
  ShowMessageFace("insects_fc1",1,0,2,23)
  ShowMessage("\\n<Insects>Ahaha...ufufu...")
  ShowMessageFace("",0,0,2,24)
  ShowMessage("The Insects are rolling around and playing with each other...")
  EndEventProcessing()
  0()
 EndIf()
 If(1,11,0,3,0)
  ShowMessageFace("insects_fc1",2,0,2,25)
  ShowMessage("\\n<Insects>We don't want to fight anymore!")
  ShowMessageFace("",0,0,2,26)
  ShowMessage("The Insects ran away!\n...But they didn't know the way, and soon came back.")
  EndEventProcessing()
  0()
 EndIf()
 If(1,11,0,4,0)
  ShowMessageFace("insects_fc1",0,0,2,27)
  ShowMessage("\\n<Insects>Hey, eat this!")
  ShowMessageFace("",0,0,2,28)
  ShowMessage("The Insects present a gift!")
  250(bytes(0x04,0x08,0x6f,0x3a,0x0c,0x52,0x50,0x47,0x3a,0x3a,0x53,0x45,0x08,0x3a,0x0a,0x40,0x6e,0x61,0x6d,0x65,0x49,0x22,0x0a,0x49,0x74,0x65,0x6d,0x31,0x06,0x3a,0x06,0x45,0x54,0x3a,0x0b,0x40,0x70,0x69,0x74,0x63,0x68,0x69,0x69,0x3a,0x0c,0x40,0x76,0x6f,0x6c,0x75,0x6d,0x65,0x69,0x55))
  ChangeInventory_Item(307,0,0,1)
  ShowMessageFace("",0,0,2,29)
  ShowMessage("You obtain a \\ii[307]!")
  EndEventProcessing()
  0()
 EndIf()
 If(1,11,0,5,0)
  ShowMessageFace("insects_fc1",0,0,2,30)
  ShowMessage("\\n<Insects>Now, let's make a trap!")
  355("interrupt_skill(3298)")
  EndEventProcessing()
  0()
 EndIf()
 0()
EndIf()
If(1,100,0,244,0)
 If(1,11,0,1,0)
  ShowMessageFace("suzumebati_fc1",0,0,2,31)
  ShowMessage("\\n<Bii>BUSY, BUSY...")
  ShowMessageFace("",0,0,2,32)
  ShowMessage("Bii is flying around her surroundings!")
  EndEventProcessing()
  0()
 EndIf()
 If(1,11,0,2,0)
  ShowMessageFace("suzumebati_fc1",0,0,2,33)
  ShowMessage("\\n<Bii>BUZZ, BUZZ, BUZZ...♪")
  ShowMessageFace("",0,0,2,34)
  ShowMessage("Bii is dancing a bee dance!\n...But nothing happened.")
  EndEventProcessing()
  0()
 EndIf()
 If(1,11,0,3,0)
  ShowMessageFace("suzumebati_fc1",0,0,2,35)
  ShowMessage("\\n<Bii>TAKING A SHORT REST...")
  313(0,244,0,11)
  ShowMessageFace("",0,0,2,36)
  ShowMessage("Bii fell asleep...")
  EndEventProcessing()
  0()
 EndIf()
 If(1,11,0,4,0)
  ShowMessageFace("suzumebati_fc1",0,0,2,37)
  ShowMessage("\\n<Bii>COLLECTED HONEY...")
  ShowMessageFace("",0,0,2,38)
  ShowMessage("Bii presents a gift!")
  250(bytes(0x04,0x08,0x6f,0x3a,0x0c,0x52,0x50,0x47,0x3a,0x3a,0x53,0x45,0x08,0x3a,0x0a,0x40,0x6e,0x61,0x6d,0x65,0x49,0x22,0x0a,0x49,0x74,0x65,0x6d,0x31,0x06,0x3a,0x06,0x45,0x54,0x3a,0x0b,0x40,0x70,0x69,0x74,0x63,0x68,0x69,0x69,0x3a,0x0c,0x40,0x76,0x6f,0x6c,0x75,0x6d,0x65,0x69,0x55))
  ChangeInventory_Item(436,0,0,1)
  ShowMessageFace("",0,0,2,39)
  ShowMessage("You obtain some \\ii[436]!")
  EndEventProcessing()
  0()
 EndIf()
 If(1,11,0,5,0)
  ShowMessageFace("suzumebati_fc1",0,0,2,40)
  ShowMessage("\\n<Bii>EII...!")
  355("interrupt_skill(3307)")
  EndEventProcessing()
  0()
 EndIf()
 0()
EndIf()
If(1,100,0,245,0)
 If(1,11,0,1,0)
  ShowMessageFace("queenbee_fc1",0,0,2,41)
  ShowMessage("\\n<Miria>I want this fight to cease now...")
  ShowMessageFace("",0,0,2,42)
  ShowMessage("Miria tries to stop the fight!\nBut no one is listening...")
  EndEventProcessing()
  0()
 EndIf()
 If(1,11,0,2,0)
  ShowMessageFace("queenbee_fc1",2,0,2,43)
  ShowMessage("\\n<Miria>I dislike such barbaric fights...")
  ShowMessageFace("",0,0,2,44)
  ShowMessage("Miria hid somewhere!\n...But nobody tried to find her.")
  EndEventProcessing()
  0()
 EndIf()
 If(1,11,0,3,0)
  ShowMessageFace("queenbee_fc1",0,0,2,45)
  ShowMessage("\\n<Miria>Everyone, fight well for my sake...")
  355("interrupt_skill(3300)")
  EndEventProcessing()
  0()
 EndIf()
 If(1,11,0,4,0)
  ShowMessageFace("queenbee_fc1",0,0,2,46)
  ShowMessage("\\n<Miria>This is honey collected by my daughers... I will share some.")
  ShowMessageFace("",0,0,2,47)
  ShowMessage("Miria present a gift!")
  250(bytes(0x04,0x08,0x6f,0x3a,0x0c,0x52,0x50,0x47,0x3a,0x3a,0x53,0x45,0x08,0x3a,0x0a,0x40,0x6e,0x61,0x6d,0x65,0x49,0x22,0x0a,0x49,0x74,0x65,0x6d,0x31,0x06,0x3a,0x06,0x45,0x54,0x3a,0x0b,0x40,0x70,0x69,0x74,0x63,0x68,0x69,0x69,0x3a,0x0c,0x40,0x76,0x6f,0x6c,0x75,0x6d,0x65,0x69,0x55))
  ChangeInventory_Item(436,0,0,1)
  ShowMessageFace("",0,0,2,48)
  ShowMessage("You obtain some \\ii[436]!")
  EndEventProcessing()
  0()
 EndIf()
 If(1,11,0,5,0)
  ShowMessageFace("queenbee_fc1",0,0,2,49)
  ShowMessage("\\n<Miria>It is noble to play with these...")
  355("interrupt_skill(3295)")
  EndEventProcessing()
  0()
 EndIf()
 0()
EndIf()
If(1,100,0,246,0)
 If(1,11,0,1,0)
  ShowMessageFace("jelly_fc1",1,0,2,50)
  ShowMessage("\\n<Jellil>............")
  ShowMessageFace("",0,0,2,51)
  ShowMessage("Jellil flashes a sweet smile!\n...But nothing happened.")
  EndEventProcessing()
  0()
 EndIf()
 If(1,11,0,2,0)
  ShowMessageFace("jelly_fc1",0,0,2,52)
  ShowMessage("\\n<Jellil>............")
  ShowMessageFace("",0,0,2,53)
  ShowMessage("Jellil makes a sidelong glance...\nHowever, it appeared to be more like a glare!")
  EndEventProcessing()
  0()
 EndIf()
 If(1,11,0,3,0)
  ShowMessageFace("jelly_fc1",0,0,2,54)
  ShowMessage("\\n<Jellil>Nyurunyuru...")
  355("interrupt_skill(2663)")
  EndEventProcessing()
  0()
 EndIf()
 If(1,11,0,4,0)
  ShowMessageFace("jelly_fc1",0,0,2,55)
  ShowMessage("\\n<Jellil>I'll give you this...")
  ShowMessageFace("",0,0,2,56)
  ShowMessage("Jellil presents a gift!")
  250(bytes(0x04,0x08,0x6f,0x3a,0x0c,0x52,0x50,0x47,0x3a,0x3a,0x53,0x45,0x08,0x3a,0x0a,0x40,0x6e,0x61,0x6d,0x65,0x49,0x22,0x0a,0x49,0x74,0x65,0x6d,0x31,0x06,0x3a,0x06,0x45,0x54,0x3a,0x0b,0x40,0x70,0x69,0x74,0x63,0x68,0x69,0x69,0x3a,0x0c,0x40,0x76,0x6f,0x6c,0x75,0x6d,0x65,0x69,0x55))
  ChangeInventory_Item(422,0,0,1)
  ShowMessageFace("",0,0,2,57)
  ShowMessage("You obtain some \\ii[422]!")
  EndEventProcessing()
  0()
 EndIf()
 If(1,11,0,5,0)
  ShowMessageFace("jelly_fc1",0,0,2,58)
  ShowMessage("\\n<Jellil>Even I am good with boomerangs...")
  355("interrupt_skill(3301)")
  EndEventProcessing()
  0()
 EndIf()
 0()
EndIf()
If(1,100,0,247,0)
 If(1,11,0,1,0)
  ShowMessageFace("blob_fc1",0,0,2,59)
  ShowMessage("\\n<Blob>Sticky Blob Dance! ♪")
  ShowMessageFace("",0,0,2,60)
  ShowMessage("Blob is dancing a cheerful dance!\n...But nothing happened.")
  EndEventProcessing()
  0()
 EndIf()
 If(1,11,0,2,0)
  ShowMessageFace("blob_fc1",0,0,2,61)
  ShowMessage("\\n<Blob>Even slimes like the sun...♪")
  ShowMessageFace("",0,0,2,62)
  ShowMessage("Blob is laying on the ground sunbathing...")
  EndEventProcessing()
  0()
 EndIf()
 If(1,11,0,3,0)
  ShowMessageFace("blob_fc1",2,0,2,63)
  ShowMessage("\\n<Blob>Jeez, this is sooo much trouble!")
  ShowMessageFace("",0,0,2,64)
  ShowMessage("Blob ran away!\n...But she didn't know the way, and soon came back.")
  EndEventProcessing()
  0()
 EndIf()
 If(1,11,0,4,0)
  ShowMessageFace("blob_fc1",0,0,2,65)
  ShowMessage("\\n<Blob>This is a service. ♪")
  ShowMessageFace("",0,0,2,66)
  ShowMessage("Blob presents a gift!")
  250(bytes(0x04,0x08,0x6f,0x3a,0x0c,0x52,0x50,0x47,0x3a,0x3a,0x53,0x45,0x08,0x3a,0x0a,0x40,0x6e,0x61,0x6d,0x65,0x49,0x22,0x0a,0x49,0x74,0x65,0x6d,0x31,0x06,0x3a,0x06,0x45,0x54,0x3a,0x0b,0x40,0x70,0x69,0x74,0x63,0x68,0x69,0x69,0x3a,0x0c,0x40,0x76,0x6f,0x6c,0x75,0x6d,0x65,0x69,0x55))
  ChangeInventory_Item(422,0,0,1)
  ShowMessageFace("",0,0,2,67)
  ShowMessage("You obtain some \\ii[422]!")
  EndEventProcessing()
  0()
 EndIf()
 If(1,11,0,5,0)
  ShowMessageFace("blob_fc1",0,0,2,68)
  ShowMessage("\\n<Blob>Sticky sticky. ♪")
  355("interrupt_skill(2646)")
  EndEventProcessing()
  0()
 EndIf()
 0()
EndIf()
If(1,100,0,248,0)
 If(1,11,0,1,0)
  ShowMessageFace("slime_purple_fc1",3,0,2,69)
  ShowMessage("\\n<Slimies>Let's catch the men over there...")
  ShowMessageFace("",0,0,2,70)
  ShowMessage("The Slimies are thinking evil thoughts...")
  EndEventProcessing()
  0()
 EndIf()
 If(1,11,0,2,0)
  ShowMessageFace("slime_purple_fc1",3,0,2,71)
  ShowMessage("\\n<Slimies>Let's dance everyone...♪")
  ShowMessageFace("",0,0,2,72)
  ShowMessage("The Slimies are dancing and singing happily...")
  EndEventProcessing()
  0()
 EndIf()
 If(1,11,0,3,0)
  ShowMessageFace("slime_purple_fc1",3,0,2,73)
  ShowMessage("\\n<Slimies>Everyone, please do your best...")
  355("interrupt_skill(3300)")
  EndEventProcessing()
  0()
 EndIf()
 If(1,11,0,4,0)
  ShowMessageFace("slime_purple_fc1",3,0,2,74)
  ShowMessage("\\n<Slimies>This is delicious...")
  ShowMessageFace("",0,0,2,75)
  ShowMessage("The Slimies present a gift!")
  250(bytes(0x04,0x08,0x6f,0x3a,0x0c,0x52,0x50,0x47,0x3a,0x3a,0x53,0x45,0x08,0x3a,0x0a,0x40,0x6e,0x61,0x6d,0x65,0x49,0x22,0x0a,0x49,0x74,0x65,0x6d,0x31,0x06,0x3a,0x06,0x45,0x54,0x3a,0x0b,0x40,0x70,0x69,0x74,0x63,0x68,0x69,0x69,0x3a,0x0c,0x40,0x76,0x6f,0x6c,0x75,0x6d,0x65,0x69,0x55))
  ChangeInventory_Item(422,0,0,1)
  ShowMessageFace("",0,0,2,76)
  ShowMessage("You obtain some \\ii[422]!")
  EndEventProcessing()
  0()
 EndIf()
 If(1,11,0,5,0)
  ShowMessageFace("slime_purple_fc1",3,0,2,77)
  ShowMessage("\\n<Slimies>Let's do it, Slimy Typhoon!")
  355("interrupt_skill(3309)")
  EndEventProcessing()
  0()
 EndIf()
 0()
EndIf()
If(1,100,0,249,0)
 If(1,11,0,1,0)
  ShowMessageFace("ant_fc1",0,0,2,78)
  ShowMessage("\\n<Ants>FEEL HAZY...")
  ShowMessageFace("",0,0,2,79)
  ShowMessage("The Ants are in a daze...")
  EndEventProcessing()
  0()
 EndIf()
 If(1,11,0,2,0)
  ShowMessageFace("ant_fc1",0,0,2,80)
  ShowMessage("\\n<Ants>PRACTICING WRITING...")
  ShowMessageFace("",0,0,2,81)
  ShowMessage("The Ants are doodling on the ground...")
  EndEventProcessing()
  0()
 EndIf()
 If(1,11,0,3,0)
  ShowMessageFace("ant_fc1",0,0,2,82)
  ShowMessage("\\n<Ants>ANT DANCE...♪")
  313(0,249,0,46)
  ShowMessageFace("",0,0,2,83)
  ShowMessage("The Ants danced a strange dance!\nThe Ants' evasion rate increased!")
  EndEventProcessing()
  0()
 EndIf()
 If(1,11,0,4,0)
  ShowMessageFace("ant_fc1",0,0,2,84)
  ShowMessage("\\n<Ants>WE WILL GIVE YOU THIS...")
  ShowMessageFace("",0,0,2,85)
  ShowMessage("The Ants presents a gift!")
  250(bytes(0x04,0x08,0x6f,0x3a,0x0c,0x52,0x50,0x47,0x3a,0x3a,0x53,0x45,0x08,0x3a,0x0a,0x40,0x6e,0x61,0x6d,0x65,0x49,0x22,0x0a,0x49,0x74,0x65,0x6d,0x31,0x06,0x3a,0x06,0x45,0x54,0x3a,0x0b,0x40,0x70,0x69,0x74,0x63,0x68,0x69,0x69,0x3a,0x0c,0x40,0x76,0x6f,0x6c,0x75,0x6d,0x65,0x69,0x55))
  ChangeInventory_Item(434,0,0,1)
  ShowMessageFace("",0,0,2,86)
  ShowMessage("You obtain a \\ii[434]!")
  EndEventProcessing()
  0()
 EndIf()
 If(1,11,0,5,0)
  ShowMessageFace("ant_fc1",0,0,2,87)
  ShowMessage("\\n<Ants>EVERYONE HELP OUT...")
  355("interrupt_skill(2877)")
  EndEventProcessing()
  0()
 EndIf()
 0()
EndIf()
If(1,100,0,250,0)
 If(1,11,0,1,0)
  ShowMessageFace("artm_fc1",0,0,2,88)
  ShowMessage("\\n<Coppelia>Humanity is no longer needed in this world...\nDolls shall rule this world.")
  ShowMessageFace("",0,0,2,89)
  ShowMessage("Coppelia made a bold declaration!\n...But no one was listening to her.")
  EndEventProcessing()
  0()
 EndIf()
 If(1,11,0,2,0)
  ShowMessageFace("artm_fc1",0,0,2,90)
  ShowMessage("\\n<Coppelia>Please watch this robot dance...")
  ShowMessageFace("",0,0,2,91)
  ShowMessage("Coppelia is dancing a cheerful dance!\n...But nothing happened.")
  EndEventProcessing()
  0()
 EndIf()
 If(1,11,0,3,0)
  ShowMessageFace("artm_fc1",0,0,2,92)
  ShowMessage("\\n<Coppelia>Entering hyper tea mode...")
  355("interrupt_skill(2392)")
  EndEventProcessing()
  0()
 EndIf()
 If(1,11,0,4,0)
  ShowMessageFace("artm_fc1",0,0,2,93)
  ShowMessage("\\n<Coppelia>I want you to please enjoy eating this...")
  ShowMessageFace("",0,0,2,94)
  ShowMessage("Coppelia presents a gift!")
  250(bytes(0x04,0x08,0x6f,0x3a,0x0c,0x52,0x50,0x47,0x3a,0x3a,0x53,0x45,0x08,0x3a,0x0a,0x40,0x6e,0x61,0x6d,0x65,0x49,0x22,0x0a,0x49,0x74,0x65,0x6d,0x31,0x06,0x3a,0x06,0x45,0x54,0x3a,0x0b,0x40,0x70,0x69,0x74,0x63,0x68,0x69,0x69,0x3a,0x0c,0x40,0x76,0x6f,0x6c,0x75,0x6d,0x65,0x69,0x55))
  ChangeInventory_Item(393,0,0,1)
  ShowMessageFace("",0,0,2,95)
  ShowMessage("You obtain some \\ii[393]!")
  EndEventProcessing()
  0()
 EndIf()
 If(1,11,0,5,0)
  ShowMessageFace("artm_fc1",0,0,2,96)
  ShowMessage("\\n<Coppelia>I shall self-destruct now...")
  355("interrupt_skill(2988)")
  EndEventProcessing()
  0()
 EndIf()
 0()
EndIf()
0()
