﻿// EVENT 1376
Name "Talk: AD-5"

If(1,20,0,1,0)
 JumpToLabel("情報")
 0()
EndIf()
If(1,20,0,2,0)
 JumpToLabel("質問")
 0()
EndIf()
If(1,20,0,3,0)
 JumpToLabel("要求")
 0()
EndIf()
If(1,20,0,4,0)
 JumpToLabel("贈与")
 0()
EndIf()
DefineLabel("情報")
ChangeVariable(13,13,0,2,1,100)
If(1,13,0,10,2)
 ShowMessageFace("AD-5_fc1",0,0,2,1)
 ShowMessage("\\n<AD-5>I am an experimental being...\nA living creature and an undead corpse...")
 EndEventProcessing()
 0()
EndIf()
If(1,13,0,20,2)
 ShowMessageFace("AD-5_fc1",0,0,2,2)
 ShowMessage("\\n<AD-5>This body is a union of angel and zombie elements...")
 EndEventProcessing()
 0()
EndIf()
If(1,13,0,30,2)
 ShowMessageFace("AD-5_fc1",0,0,2,3)
 ShowMessage("\\n<AD-5>I only hunger for semen...")
 EndEventProcessing()
 0()
EndIf()
If(1,13,0,40,2)
 ShowMessageFace("AD-5_fc1",0,0,2,4)
 ShowMessage("\\n<AD-5>I have no memories from when I was an angel...")
 EndEventProcessing()
 0()
EndIf()
If(1,13,0,50,2)
 ShowMessageFace("AD-5_fc1",0,0,2,5)
 ShowMessage("\\n<AD-5>I am a hideous experimental being...")
 EndEventProcessing()
 0()
EndIf()
If(1,13,0,60,2)
 ShowMessageFace("AD-5_fc1",0,0,2,6)
 ShowMessage("\\n<AD-5>I want to live in peace...")
 EndEventProcessing()
 0()
EndIf()
If(1,13,0,70,2)
 ShowMessageFace("AD-5_fc1",0,0,2,7)
 ShowMessage("\\n<AD-5>My tentacles are creepy...")
 EndEventProcessing()
 0()
EndIf()
If(1,13,0,80,2)
 ShowMessageFace("AD-5_fc1",0,0,2,8)
 ShowMessage("\\n<AD-5>It is inconvenient when my tentacles and bandages get tangled up...")
 EndEventProcessing()
 0()
EndIf()
If(1,13,0,90,2)
 ShowMessageFace("AD-5_fc1",0,0,2,9)
 ShowMessage("\\n<AD-5>I am wrapped in bandages, but I haven't been seriously injured...")
 EndEventProcessing()
 0()
EndIf()
If(1,13,0,100,2)
 ShowMessageFace("AD-5_fc1",0,0,2,10)
 ShowMessage("\\n<AD-5>I am tangled up...")
 EndEventProcessing()
 0()
EndIf()
DefineLabel("質問")
ChangeVariable(13,13,0,2,1,50)
If(1,13,0,10,2)
 ShowMessageFace("AD-5_fc1",0,0,2,11)
 ShowMessage("\\n<AD-5>What is the purpose of my existence...?")
 ShowChoices(strings("Fighting","Experimenting","Find out for yourself"),0)
 IfPlayerPicksChoice(0,"戦うこと")
  ShowMessageFace("AD-5_fc1",0,0,2,12)
  ShowMessage("\\n<AD-5>Then, I shall only fight...")
  0()
 IfPlayerPicksChoice(1,"実験すること")
  ShowMessageFace("AD-5_fc1",0,0,2,13)
  ShowMessage("\\n<AD-5>I detest experimentation...")
  355("change_friend(-5)")
  0()
 IfPlayerPicksChoice(2,"自分で探せ")
  ShowMessageFace("AD-5_fc1",0,0,2,14)
  ShowMessage("\\n<AD-5>I see... Is it worth discovering on my own?")
  355("change_friend(10)")
  0()
 404()
 EndEventProcessing()
 0()
EndIf()
If(1,13,0,20,2)
 ShowMessageFace("AD-5_fc1",0,0,2,15)
 ShowMessage("\\n<AD-5>Am I a creature, an angel, or a corpse?")
 ShowChoices(strings("Creature","Angel","Corpse"),0)
 IfPlayerPicksChoice(0,"生物")
  ShowMessageFace("AD-5_fc1",0,0,2,16)
  ShowMessage("\\n<AD-5>But this body is dead... The heart is of an angel...")
  0()
 IfPlayerPicksChoice(1,"天使")
  ShowMessageFace("AD-5_fc1",0,0,2,17)
  ShowMessage("\\n<AD-5>I am still a servant of Heaven...")
  355("change_friend(10)")
  0()
 IfPlayerPicksChoice(2,"屍")
  ShowMessageFace("AD-5_fc1",0,0,2,18)
  ShowMessage("\\n<AD-5>Then I should already be dead...")
  355("change_friend(-5)")
  0()
 404()
 EndEventProcessing()
 0()
EndIf()
If(1,13,0,30,2)
 ShowMessageFace("AD-5_fc1",0,0,2,19)
 ShowMessage("\\n<AD-5>Am I... Free...?")
 ShowChoices(strings("You're free","You're not free","No one is free"),0)
 IfPlayerPicksChoice(0,"自由だ")
  ShowMessageFace("AD-5_fc1",0,0,2,20)
  ShowMessage("\\n<AD-5>This is...freedom..")
  355("change_friend(10)")
  0()
 IfPlayerPicksChoice(1,"自由じゃない")
  ShowMessageFace("AD-5_fc1",0,0,2,21)
  ShowMessage("\\n<AD-5>I have...no freedom...")
  355("change_friend(-5)")
  0()
 IfPlayerPicksChoice(2,"誰も自由じゃない")
  ShowMessageFace("AD-5_fc1",0,0,2,22)
  ShowMessage("\\n<AD-5>No one has freedom...?")
  0()
 404()
 EndEventProcessing()
 0()
EndIf()
If(1,13,0,40,2)
 ShowMessageFace("AD-5_fc1",0,0,2,23)
 ShowMessage("\\n<AD-5>Who are you people...?")
 ShowChoices(strings("Adventurers","Outsiders","Pickles"),0)
 IfPlayerPicksChoice(0,"冒険者")
  ShowMessageFace("AD-5_fc1",0,0,2,24)
  ShowMessage("\\n<AD-5>To venture to a place like this...\nYou are strange people...")
  355("change_friend(10)")
  0()
 IfPlayerPicksChoice(1,"よそ者")
  ShowMessageFace("AD-5_fc1",0,0,2,25)
  ShowMessage("\\n<AD-5>I know you are outsiders...")
  0()
 IfPlayerPicksChoice(2,"つけもの")
  ShowMessageFace("AD-5_fc1",0,0,2,26)
  ShowMessage("\\n<AD-5>Pickles that talk and fight...?\nHow strange...")
  355("change_friend(-5)")
  0()
 404()
 EndEventProcessing()
 0()
EndIf()
If(1,13,0,50,2)
 ShowMessageFace("AD-5_fc1",0,0,2,27)
 ShowMessage("\\n<AD-5>Is there... hope for this world...?")
 ShowChoices(strings("There is","There isn't","I'm not sure"),0)
 IfPlayerPicksChoice(0,"ある")
  ShowMessageFace("AD-5_fc1",0,0,2,28)
  ShowMessage("\\n<AD-5>I want to believe so...")
  0()
 IfPlayerPicksChoice(1,"ない")
  ShowMessageFace("AD-5_fc1",0,0,2,29)
  ShowMessage("\\n<AD-5>How sad...")
  355("change_friend(-5)")
  0()
 IfPlayerPicksChoice(2,"あったりなかったり")
  ShowMessageFace("AD-5_fc1",0,0,2,30)
  ShowMessage("\\n<AD-5>Is it fading...?\nMaybe so...")
  355("change_friend(10)")
  0()
 404()
 EndEventProcessing()
 0()
EndIf()
DefineLabel("要求")
ChangeVariable(13,13,0,2,1,30)
If(1,13,0,10,2)
 If(8,317)
  ShowMessageFace("AD-5_fc1",0,0,2,31)
  ShowMessage("\\n<AD-5>Garlic...")
  ChangeVariable(24,24,0,3,0,317,0)
  ShowMessageFace("",0,0,2,32)
  ShowMessage("Do you want to give some \\ii[317]? (Have:\\V[24])")
  ShowChoices(strings("Yes","No"),2)
  IfPlayerPicksChoice(0,"No")
   ShowMessageFace("AD-5_fc1",0,0,2,33)
   ShowMessage("\\n<AD-5>Thank you...")
   ChangeInventory_Item(317,1,0,1)
   355("change_friend(20)")
   EndEventProcessing()
   0()
  IfPlayerPicksChoice(1,"No")
   ShowMessageFace("AD-5_fc1",0,0,2,34)
   ShowMessage("\\n<AD-5>Not enough...")
   EndEventProcessing()
   0()
  404()
  0()
 Else()
  ChangeVariable(13,13,0,0,20)
  0()
 EndIf()
 0()
EndIf()
If(1,13,0,20,2)
 If(8,20)
  ShowMessageFace("AD-5_fc1",0,0,2,35)
  ShowMessage("\\n<AD-5>Gold needle...")
  ChangeVariable(24,24,0,3,0,20,0)
  ShowMessageFace("",0,0,2,36)
  ShowMessage("Do you want to give a \\ii[20]? (Have:\\V[24])")
  ShowChoices(strings("Yes","No"),2)
  IfPlayerPicksChoice(0,"Yes")
   ShowMessageFace("AD-5_fc1",0,0,2,37)
   ShowMessage("\\n<AD-5>Thank you...")
   ChangeInventory_Item(20,1,0,1)
   355("change_friend(30)")
   EndEventProcessing()
   0()
  IfPlayerPicksChoice(1,"No")
   ShowMessageFace("AD-5_fc1",0,0,2,38)
   ShowMessage("\\n<AD-5>Not enough...")
   EndEventProcessing()
   0()
  404()
  0()
 Else()
  ChangeVariable(13,13,0,0,30)
  0()
 EndIf()
 0()
EndIf()
If(1,13,0,30,2)
 ShowMessageFace("AD-5_fc1",0,0,2,39)
 ShowMessage("\\n<AD-5>Money...")
 If(7,1266,0)
  ChangeVariable(24,24,0,3,7,2,0)
  ShowMessageFace("",0,0,2,40)
  ShowMessage("Do you want to give 1266G? (Remaining:\\V[24])")
  ShowChoices(strings("Yes","No"),2)
  IfPlayerPicksChoice(0,"Yes")
   ShowMessageFace("AD-5_fc1",0,0,2,41)
   ShowMessage("\\n<AD-5>Thank you...")
   125(1,0,1266)
   355("change_friend(25)")
   EndEventProcessing()
   0()
  IfPlayerPicksChoice(1,"No")
   ShowMessageFace("AD-5_fc1",0,0,2,42)
   ShowMessage("\\n<AD-5>Not enough...")
   EndEventProcessing()
   0()
  404()
  0()
 Else()
  ShowMessageFace("AD-5_fc1",0,0,2,43)
  ShowMessage("\\n<AD-5>You don't have it...")
  EndEventProcessing()
  0()
 EndIf()
 0()
EndIf()
DefineLabel("贈与")
ChangeVariable(13,13,0,2,1,30)
If(1,25,0,1,0)
 ChangeVariable(13,13,0,0,30)
 ChangeVariable(25,25,0,0,0)
 0()
EndIf()
If(1,25,0,2,0)
 ChangeVariable(13,13,0,2,1,20)
 ChangeVariable(25,25,0,0,0)
 0()
EndIf()
If(1,13,0,10,2)
 ShowMessageFace("AD-5_fc1",0,0,2,44)
 ShowMessage("\\n<AD-5>Cells... Receive...")
 250(bytes(0x04,0x08,0x6f,0x3a,0x0c,0x52,0x50,0x47,0x3a,0x3a,0x53,0x45,0x08,0x3a,0x0a,0x40,0x6e,0x61,0x6d,0x65,0x49,0x22,0x0a,0x49,0x74,0x65,0x6d,0x31,0x06,0x3a,0x06,0x45,0x54,0x3a,0x0b,0x40,0x70,0x69,0x74,0x63,0x68,0x69,0x69,0x3a,0x0c,0x40,0x76,0x6f,0x6c,0x75,0x6d,0x65,0x69,0x55))
 ChangeInventory_Item(225,0,0,1)
 ShowMessageFace("",0,0,2,45)
 ShowMessage("AD-5 gave you an \\ii[225]!")
 EndEventProcessing()
 0()
EndIf()
If(1,13,0,20,2)
 ShowMessageFace("AD-5_fc1",0,0,2,46)
 ShowMessage("\\n<AD-5>Herb... Receive...")
 250(bytes(0x04,0x08,0x6f,0x3a,0x0c,0x52,0x50,0x47,0x3a,0x3a,0x53,0x45,0x08,0x3a,0x0a,0x40,0x6e,0x61,0x6d,0x65,0x49,0x22,0x0a,0x49,0x74,0x65,0x6d,0x31,0x06,0x3a,0x06,0x45,0x54,0x3a,0x0b,0x40,0x70,0x69,0x74,0x63,0x68,0x69,0x69,0x3a,0x0c,0x40,0x76,0x6f,0x6c,0x75,0x6d,0x65,0x69,0x55))
 ChangeInventory_Item(2,0,0,1)
 ShowMessageFace("",0,0,2,47)
 ShowMessage("AD-5 gave you a \\ii[2]!")
 EndEventProcessing()
 0()
EndIf()
If(1,13,0,30,2)
 ShowMessageFace("AD-5_fc1",0,0,2,48)
 ShowMessage("\\n<AD-5>Money... Receive...")
 250(bytes(0x04,0x08,0x6f,0x3a,0x0c,0x52,0x50,0x47,0x3a,0x3a,0x53,0x45,0x08,0x3a,0x0a,0x40,0x6e,0x61,0x6d,0x65,0x49,0x22,0x0a,0x49,0x74,0x65,0x6d,0x31,0x06,0x3a,0x06,0x45,0x54,0x3a,0x0b,0x40,0x70,0x69,0x74,0x63,0x68,0x69,0x69,0x3a,0x0c,0x40,0x76,0x6f,0x6c,0x75,0x6d,0x65,0x69,0x55))
 125(0,0,2110)
 ShowMessageFace("",0,0,2,49)
 ShowMessage("AD-5 gave you 2110G!")
 EndEventProcessing()
 0()
EndIf()
0()
