// EVENT 3378
Name "Fernandez"

PictureDisplay(5,"80_cirque_st02",0,0,0,0,100,100,0,0)
PictureMove(5,null,0,0,0,0,100,100,255,0,30,true)
241(bytes(0x04,0x08,0x6f,0x3a,0x0d,0x52,0x50,0x47,0x3a,0x3a,0x42,0x47,0x4d,0x08,0x3a,0x0a,0x40,0x6e,0x61,0x6d,0x65,0x49,0x22,0x09,0x65,0x72,0x6f,0x31,0x06,0x3a,0x06,0x45,0x54,0x3a,0x0c,0x40,0x76,0x6f,0x6c,0x75,0x6d,0x65,0x69,0x69,0x3a,0x0b,0x40,0x70,0x69,0x74,0x63,0x68,0x69,0x69))
ShowMessageFace("",0,0,2,1)
ShowMessage("\\n<Luka>Auuu...")
ShowMessageFace("",0,0,2,2)
ShowMessage("After being defeated by the Cirque du Croix, I was captured.")
ShowMessage("Then...")
245(bytes(0x04,0x08,0x6f,0x3a,0x0d,0x52,0x50,0x47,0x3a,0x3a,0x42,0x47,0x53,0x08,0x3a,0x0a,0x40,0x6e,0x61,0x6d,0x65,0x49,0x22,0x17,0x6d,0x6f,0x6e,0x5f,0x68,0x73,0x65,0x61,0x6e,0x31,0x37,0x5f,0x73,0x69,0x67,0x6f,0x6b,0x69,0x06,0x3a,0x06,0x45,0x54,0x3a,0x0c,0x40,0x76,0x6f,0x6c,0x75,0x6d,0x65,0x69,0x55,0x3a,0x0b,0x40,0x70,0x69,0x74,0x63,0x68,0x69,0x69))
PictureDisplay(5,"ev_cirque_h01",0,0,0,0,100,100,255,0)
ShowMessageFace("",0,0,2,3)
ShowMessage("Ever since then, I was the zombie monsters toy.")
ShowMessage("They rape me one after another, forcing me to give them energy.")
PictureDisplay(5,"ev_cirque_h02",0,0,0,0,100,100,255,0)
ShowMessageFace("cirqueb_fc5",1,0,2,4)
ShowMessage("\\n<Queen Harpy>")
ShowMessage("Here, I'll lick his balls...")
ShowMessage("*Lick* *Lick* ")
ShowMessageFace("cirqueb_fc3",1,0,2,5)
ShowMessage("\\n<Roza>")
ShowMessage("My breasts are soft, aren't they?")
ShowMessageFace("",0,0,2,6)
ShowMessage("\\n<Luka>Ah...Ahh...")
ShowMessageFace("",0,0,2,7)
ShowMessage("Roza's massive breasts press against my penis, as the Queen Harpy's tongue runs across my balls.")
ShowMessage("After a couple licks, she gently sucks one of my balls into her mouth, savoring it like candy.")
ShowMessageFace("",0,0,2,8)
ShowMessage("After only a few seconds of that, my balls are glistening wet with her saliva.")
ShowMessageFace("cirqueb_fc5",1,0,2,9)
ShowMessage("\\n<Queen Harpy>")
ShowMessage("Hehe... Delicious.")
ShowMessage("*Lick* *Lick* ")
ShowMessageFace("cirqueb_fc3",1,0,2,10)
ShowMessage("\\n<Roza>")
ShowMessage("Well? Do you want to be sandwiched between them?")
ShowMessageFace("",0,0,2,11)
ShowMessage("Her huge, warm breasts press against the root of my penis.")
ShowMessage("Even though the stimulation isn't directly on my penis, I'm already leaking pre-come.")
ShowMessageFace("",0,0,2,12)
ShowMessage("The overpowering smell of the females doubles the sensations.")
ShowMessageFace("",0,0,2,13)
ShowMessage("As the Queen Harpy's tongue runs over my balls, I can't stop a rising desire to come.")
ShowMessageFace("",0,0,2,14)
ShowMessage("\\n<Luka>N...no...! Coming!")
246(1)
RunCommonEvent(104)
PictureDisplay(5,"ev_cirque_h03",0,0,0,0,100,100,255,0)
RunCommonEvent(105)
ShowMessageFace("",0,0,2,15)
ShowMessage("My penis suddenly trembles, as I shoot semen into the air.")
PictureDisplay(5,"ev_cirque_h04",0,0,0,0,100,100,255,0)
ShowMessageFace("",0,0,2,16)
ShowMessage("The semen shoots out, and lands on Queen Scylla's face.")
ShowMessageFace("cirqueb_fc6",1,0,2,17)
ShowMessage("\\n<Queen Scylla>")
ShowMessage("You... Gave me your semen?")
ShowMessageFace("",0,0,2,18)
ShowMessage("The Queen Scylla licks the semen I shot onto her face.")
ShowMessage("While still choking on the intense smell, I indulge in the afterglow.")
ShowMessageFace("",0,0,2,19)
ShowMessage("\\n<Luka>Ahh...")
ShowMessageFace("",0,0,2,20)
ShowMessage("The ejaculation causes me to feel extremely weak.")
ShowMessage("Does something about them drain more energy from me than a normal ejaculation...?")
ShowMessageFace("cirqueb_fc5",1,0,2,21)
ShowMessage("\\n<Queen Harpy>")
ShowMessage("Ahaha, did you enjoy my ball licking?")
ShowMessageFace("cirqueb_fc3",1,0,2,22)
ShowMessage("\\n<Roza>")
ShowMessage("Next, shall I squeeze it between my breasts?")
ShowMessage("You're not satisfied just looking at them, are you?")
ShowMessageFace("cirqueb_fc5",1,0,2,23)
ShowMessage("\\n<Queen Harpy>")
ShowMessage("You aren't allowed to hog him.")
ShowMessage("I'll use my breasts too.")
245(bytes(0x04,0x08,0x6f,0x3a,0x0d,0x52,0x50,0x47,0x3a,0x3a,0x42,0x47,0x53,0x08,0x3a,0x0a,0x40,0x6e,0x61,0x6d,0x65,0x49,0x22,0x17,0x6d,0x6f,0x6e,0x5f,0x68,0x73,0x65,0x61,0x6e,0x31,0x37,0x5f,0x73,0x69,0x67,0x6f,0x6b,0x69,0x06,0x3a,0x06,0x45,0x54,0x3a,0x0c,0x40,0x76,0x6f,0x6c,0x75,0x6d,0x65,0x69,0x55,0x3a,0x0b,0x40,0x70,0x69,0x74,0x63,0x68,0x69,0x69))
PictureDisplay(5,"ev_cirque_h05",0,0,0,0,100,100,255,0)
ShowMessageFace("",0,0,2,24)
ShowMessage("Roza and the Queen Harpy both push their breasts together around my penis.")
ShowMessage("The sudden soft feeling of them causes my waist to jerk upward.")
ShowMessageFace("",0,0,2,25)
ShowMessage("As the four breasts press against my penis and hold me down, I let out a moan.")
ShowMessageFace("",0,0,2,26)
ShowMessage("\\n<Luka>Haa...")
ShowMessageFace("cirqueb_fc2",1,0,2,27)
ShowMessage("\\n<Titania>")
ShowMessage("Ahaha, he's feeling good. ♪")
ShowMessageFace("",0,0,2,28)
ShowMessage("Titania giggles as she stares at my penis, locked between their breasts.")
ShowMessageFace("cirqueb_fc3",1,0,2,29)
ShowMessage("\\n<Roza>")
ShowMessage("You're feeling good? Then just come...")
ShowMessageFace("",0,0,2,30)
ShowMessage("Roza puts more pressure on her breasts, pressing her soft skin hard against my penis.")
ShowMessageFace("cirqueb_fc5",1,0,2,31)
ShowMessage("\\n<Queen Harpy>")
ShowMessage("We'll squeeze out your male milk...")
ShowMessage("Cover my breasts with your semen...")
ShowMessageFace("",0,0,2,32)
ShowMessage("On the other side, Queen Harpy starts moving her breasts up and down, stroking my penis with her smooth skin.")
ShowMessageFace("",0,0,2,33)
ShowMessage("\\n<Luka>Ah...")
ShowMessageFace("cirqueb_fc6",1,0,2,34)
ShowMessage("\\n<Queen Scylla>")
ShowMessage("As thanks for the semen, a present...")
PictureDisplay(5,"ev_cirque_h06",0,0,0,0,100,100,255,0)
ShowMessageFace("",0,0,2,35)
ShowMessage("Queen Scylla presses her face against me, giving me a deep kiss.")
ShowMessage("Despite the bittersweet taste, it doesn't feel bad...")
ShowMessageFace("",0,0,2,36)
ShowMessage("Her long tongue pushes into my mouth and races around, as if she was raping me with it.")
ShowMessageFace("",0,0,2,37)
ShowMessage("\\n<Luka>Nnnn...")
ShowMessageFace("",0,0,2,38)
ShowMessage("Even though she's raping my mouth with her own tongue, I relax in the deep kiss.")
ShowMessage("At the same time, my penis trembles between their four breasts.")
ShowMessageFace("",0,0,2,39)
ShowMessage("Attacking from everywhere at once, my body is writhing in total pleasure.")
ShowMessageFace("cirqueb_fc3",1,0,2,40)
ShowMessage("\\n<Roza>")
ShowMessage("Now finish on my breasts...")
ShowMessageFace("cirqueb_fc5",1,0,2,41)
ShowMessage("\\n<Queen Harpy>")
ShowMessage("It's time for the finishing blow?")
ShowMessage("All right then...")
ShowMessageFace("",0,0,2,42)
ShowMessage("The two of them start to move at the same time.")
ShowMessageFace("",0,0,2,43)
ShowMessage("Roza presses far harder against me with her elastic breasts, while Queen Harpy's movements get far more intense.")
ShowMessageFace("",0,0,2,44)
ShowMessage("With Queen Scylla still forcefully kissing me, my whole body spasms in pure ecstasy as I'm forced over the edge.")
ShowMessageFace("",0,0,2,45)
ShowMessage("\\n<Luka>Nnnnn!!! ")
RunCommonEvent(104)
PictureDisplay(5,"ev_cirque_h07",0,0,0,0,100,100,255,0)
RunCommonEvent(105)
ShowMessageFace("",0,0,2,46)
ShowMessage("My semen shoots into the air, and falls back down on their bodies.")
PictureDisplay(5,"ev_cirque_h08",0,0,0,0,100,100,255,0)
ShowMessageFace("",0,0,2,47)
ShowMessage("Roza and Queen Harpy's breasts get covered in my semen.")
246(1)
ShowMessageFace("cirqueb_fc2",1,0,2,48)
ShowMessage("\\n<Titania>")
ShowMessage("Aha, he even covered my body with semen. ♪")
ShowMessage("Look at all of it that he peed out!  How embarrassing! ♪")
ShowMessageFace("",0,0,2,49)
ShowMessage("\\n<Luka>Haa...")
ShowMessageFace("",0,0,2,50)
ShowMessage("As I thought, the weakness that comes with an orgasm is far more than normal.")
ShowMessage("If this keeps up, I'll die...")
PictureDisplay(5,"ev_cirque_h09",0,0,0,0,100,100,255,0)
ShowMessageFace("",0,0,2,51)
ShowMessage("Roza and the Queen Harpy finally move away.")
ShowMessage("Are they giving me a break so that I won't die...?")
ShowMessageFace("cirqueb_fc6",1,0,2,52)
ShowMessage("\\n<Queen Scylla>")
ShowMessage("Now then, shall I go next with my tentacles?")
ShowMessageFace("",0,0,2,53)
ShowMessage("\\n<Luka>N...no! I'll die!")
ShowMessageFace("cirqueb_fc6",1,0,2,54)
ShowMessage("\\n<Queen Scylla>")
ShowMessage("We have no concern for your body.")
ShowMessage("We'll squeeze and wring you, until you die...")
ShowMessageFace("cirqueb_fc2",1,0,2,55)
ShowMessage("\\n<Titania>")
ShowMessage("Ahaha, die! ♪")
ShowMessageFace("",0,0,2,56)
ShowMessage("\\n<Luka>Ahh! S...Stop!")
245(bytes(0x04,0x08,0x6f,0x3a,0x0d,0x52,0x50,0x47,0x3a,0x3a,0x42,0x47,0x53,0x08,0x3a,0x0a,0x40,0x6e,0x61,0x6d,0x65,0x49,0x22,0x1a,0x6d,0x6f,0x6e,0x5f,0x68,0x73,0x65,0x61,0x6e,0x32,0x30,0x5f,0x74,0x65,0x6e,0x74,0x61,0x63,0x6c,0x65,0x31,0x06,0x3a,0x06,0x45,0x54,0x3a,0x0c,0x40,0x76,0x6f,0x6c,0x75,0x6d,0x65,0x69,0x55,0x3a,0x0b,0x40,0x70,0x69,0x74,0x63,0x68,0x69,0x69))
PictureDisplay(5,"ev_cirque_h10",0,0,0,0,100,100,255,0)
ShowMessageFace("",0,0,2,57)
ShowMessage("My twitching penis is slowly coiled up by her tentacles.")
ShowMessage("Forming a tube with them, it's like she brought me into a vagina made of tentacles.")
ShowMessageFace("",0,0,2,58)
ShowMessage("The slimy, elastic feeling of them presses against my sensitive shaft.")
ShowMessageFace("",0,0,2,59)
ShowMessage("\\n<Luka>Ah! Ahhh!")
ShowMessageFace("cirqueb_fc1",3,0,2,60)
ShowMessage("\\n<Fernandez>")
ShowMessage("Next, kiss me...")
PictureDisplay(5,"ev_cirque_h11",0,0,0,0,100,100,255,0)
ShowMessageFace("",0,0,2,61)
ShowMessage("Before I can object, Fernandez's lips lock with mine.")
ShowMessage("A sweeter kiss than the Queen Scylla's causes me to relax.")
ShowMessageFace("cirqueb_fc1",3,0,2,62)
ShowMessage("\\n<Fernandez>")
ShowMessage("Hehe... Kiss of Ecstasy...")
ShowMessageFace("",0,0,2,63)
ShowMessage("\\n<Luka>Nnn...")
ShowMessageFace("",0,0,2,64)
ShowMessage("Her tongue races around my mouth, the magical sense of ecstasy flooding even more of my body.")
ShowMessageFace("",0,0,2,65)
ShowMessage("Instead of the rape-like kiss of Queen Scylla, Fernandez's is almost loving...")
ShowMessageFace("",0,0,2,66)
ShowMessage("\\n<Luka>Mmm... Nnn...")
ShowMessageFace("cirqueb_fc6",1,0,2,67)
ShowMessage("\\n<Queen Scylla>")
ShowMessage("...You seem to like hers a lot more than mine.")
ShowMessage("But don't forget that your penis is under my control.")
ShowMessageFace("",0,0,2,68)
ShowMessage("\\n<Luka>Nnnn! Nnnnn!")
ShowMessageFace("",0,0,2,69)
ShowMessage("The tube of tentacles around my penis suddenly squeezes down hard, as her soft flesh rubs up and down against me.")
ShowMessageFace("cirqueb_fc6",1,0,2,70)
ShowMessage("\\n<Queen Scylla>")
ShowMessage("I'll end this right away... Now come!")
ShowMessageFace("",0,0,2,71)
ShowMessage("Her soft tube of tentacles races up and down my penis with almost blinding speed, rubbing my tip and underneath my neck with the tips of her tentacles as she goes.")
ShowMessageFace("",0,0,2,72)
ShowMessage("\\n<Luka>Nnnn!!!")
ShowMessageFace("",0,0,2,73)
ShowMessage("A movement to force an orgasm, without mercy.")
ShowMessage("Responding to it, my body shakes as I come.")
RunCommonEvent(104)
PictureDisplay(5,"ev_cirque_h12",0,0,0,0,100,100,255,0)
RunCommonEvent(105)
ShowMessageFace("",0,0,2,74)
ShowMessage("And as if at her command, I come, my semen covering her tentacles.")
ShowMessage("Even though ejaculating more is dangerous, I couldn't stop it...")
246(1)
ShowMessageFace("",0,0,2,75)
ShowMessage("\\n<Luka>Ahh...")
ShowMessageFace("",0,0,2,76)
ShowMessage("After the repeated orgasms, I can't even move a finger.")
ShowMessage("My gasps are getting weaker, and I'm barely able to remain conscious.")
ShowMessageFace("cirqueb_fc2",1,0,2,77)
ShowMessage("\\n<Titania>")
ShowMessage("He's going to die soon, isn't he? ♪")
ShowMessage("Then I'll give him the final blow. ♪")
245(bytes(0x04,0x08,0x6f,0x3a,0x0d,0x52,0x50,0x47,0x3a,0x3a,0x42,0x47,0x53,0x08,0x3a,0x0a,0x40,0x6e,0x61,0x6d,0x65,0x49,0x22,0x17,0x6d,0x6f,0x6e,0x5f,0x68,0x73,0x65,0x61,0x6e,0x31,0x37,0x5f,0x73,0x69,0x67,0x6f,0x6b,0x69,0x06,0x3a,0x06,0x45,0x54,0x3a,0x0c,0x40,0x76,0x6f,0x6c,0x75,0x6d,0x65,0x69,0x55,0x3a,0x0b,0x40,0x70,0x69,0x74,0x63,0x68,0x69,0x69))
PictureDisplay(5,"ev_cirque_h13",0,0,0,0,100,100,255,0)
ShowMessageFace("",0,0,2,78)
ShowMessage("Titania clings to my penis, and holds on tight.")
ShowMessage("The strange feeling of her small body on my penis causes me to shake my waist in feeble resistance.")
ShowMessageFace("",0,0,2,79)
ShowMessage("\\n<Luka>N...no! If you do any more... Then...")
ShowMessageFace("cirqueb_fc2",1,0,2,80)
ShowMessage("\\n<Titania>")
ShowMessage("Teehee... If you come, you'll die, right?")
ShowMessage("I wonder how long you'll last...?")
ShowMessageFace("",0,0,2,81)
ShowMessage("Titania's small body squeezes my penis tight as she giggles.")
ShowMessage("She's mercilessly trying to make me ejaculate, and kill me...")
ShowMessageFace("",0,0,2,82)
ShowMessage("The small Fairy is toying with my penis, and leading me to death...")
ShowMessage("Gritting my teeth, I do everything I can to endure it.")
ShowMessageFace("cirqueb_fc6",1,0,2,83)
ShowMessage("\\n<Queen Scylla>")
ShowMessage("What a sore loser.")
ShowMessageFace("cirqueb_fc1",3,0,2,84)
ShowMessage("\\n<Fernandez>")
ShowMessage("We'll send you to the next world...")
PictureDisplay(5,"ev_cirque_h14",0,0,0,0,100,100,255,0)
ShowMessageFace("",0,0,2,85)
ShowMessage("Queen Scylla and Fernandez move to my side, and stick their wet tongues into my right and left ears.")
ShowMessageFace("cirqueb_fc6",1,0,2,86)
ShowMessage("\\n<Queen Scylla>")
ShowMessage("Nnn... *Lick*")
ShowMessageFace("cirqueb_fc1",3,0,2,87)
ShowMessage("\\n<Fernandez>")
ShowMessage("*Lick* *Lick*")
ShowMessageFace("",0,0,2,88)
ShowMessage("\\n<Luka>Haa... Ah...")
ShowMessageFace("",0,0,2,89)
ShowMessage("The wet noises of their licks drown out everything else, making it feel like they're raping my brain itself.")
PictureDisplay(5,"ev_cirque_h15",0,0,0,0,100,100,255,0)
ShowMessageFace("",0,0,2,90)
ShowMessage("Pre-come slowly leaks out, staining Titania's clothes.")
ShowMessage("I can't endure it at this rate...")
ShowMessageFace("",0,0,2,91)
ShowMessage("\\n<Luka>Haa... No...")
ShowMessageFace("cirqueb_fc2",1,0,2,92)
ShowMessage("\\n<Titania>")
ShowMessage("Teehee... There's no running away. ♪")
ShowMessage("You're going to die. ♪")
ShowMessageFace("",0,0,2,93)
ShowMessage("Titania rubs my penis with her entire body, as her small tongue licks across my glans...")
ShowMessageFace("",0,0,2,94)
ShowMessage("\\n<Luka>N...nooo! Ahhh!")
RunCommonEvent(104)
PictureDisplay(5,"ev_cirque_h17",0,0,0,0,100,100,255,0)
RunCommonEvent(105)
ShowMessageFace("",0,0,2,95)
ShowMessage("Explosions of ecstasy race through me in my final moments, my semen shooting out and covering the zombies who are gang raping me.")
PictureDisplay(5,"ev_cirque_h18",0,0,0,0,100,100,255,0)
ShowMessageFace("",0,0,2,96)
ShowMessage("\\n<Luka>Ah...")
ShowMessageFace("",0,0,2,97)
ShowMessage("Weakness floods through my body as my vision dims.")
ShowMessage("I finally meet my end while still twitching in ecstasy.")
ShowMessageFace("cirqueb_fc2",1,0,2,98)
ShowMessage("\\n<Titania>")
ShowMessage("Ahaha... Goodbye. ♪")
ShowMessageFace("",0,0,2,99)
ShowMessage("My last view is of the giggling Titania and the sadistic smiles of the zombie girls who raped me to death...")
221()
PictureClear(5)
PictureClear(6)
246(2)
ShowMessageFace("",0,0,2,100)
ShowMessage("......")
221()
242(1)
Wait(120)
355("memory_interruption")
ShowMessageFace("",0,0,2,101)
ShowMessage("You hear Ilias' voice calling out to you...")
ShowMessage("Receive her evaluation?")
ShowChoices(strings("Receive evaluation","Change difficulty","Reincarnate"),3)
IfPlayerPicksChoice(0,"反省会に出る")
 241(bytes(0x04,0x08,0x6f,0x3a,0x0d,0x52,0x50,0x47,0x3a,0x3a,0x42,0x47,0x4d,0x08,0x3a,0x0a,0x40,0x6e,0x61,0x6d,0x65,0x49,0x22,0x0a,0x69,0x72,0x69,0x61,0x73,0x06,0x3a,0x06,0x45,0x54,0x3a,0x0c,0x40,0x76,0x6f,0x6c,0x75,0x6d,0x65,0x69,0x5f,0x3a,0x0b,0x40,0x70,0x69,0x74,0x63,0x68,0x69,0x6e))
 PictureDisplay(1,"bg001",0,0,0,0,100,100,255,0)
 222()
 PictureDisplay(5,"80_iriasu_st04",0,0,0,0,100,100,0,0)
 PictureMove(5,null,0,0,0,0,100,100,255,0,30,true)
 ShowMessageFace("iriasu_fc1",3,0,2,102)
 ShowMessage("\\n<Ilias>An orchestra of the dead... What a disgusting group.")
 ShowMessage("You may have enjoyed the gangbang, but they're a threat to normal people.")
 PictureDisplay(5,"80_iriasu_st01",0,0,0,0,100,100,255,0)
 ShowMessageFace("iriasu_fc1",0,0,2,103)
 ShowMessage("\\n<Ilias>They all use powerful techniques.")
 ShowMessage("It's a huge group battle, so it will be difficult all around.")
 ShowMessageFace("iriasu_fc1",0,0,2,104)
 ShowMessage("\\n<Ilias>Since they're all zombies, they are weak to fire and holy.")
 ShowMessage("Abnormal status effect defense is all over the place, so you can't depend on them too much.")
 PictureDisplay(5,"80_iriasu_st02",0,0,0,0,100,100,255,0)
 ShowMessageFace("iriasu_fc1",1,0,2,105)
 ShowMessage("\\n<Ilias>Now go, oh Brave Luka.")
 ShowMessage("Be sure to dismantle that orchestra with your own hands.")
 242(1)
 221()
 PictureClear(5)
 PictureClear(1)
 Wait(60)
 0()
IfPlayerPicksChoice(1,"難易度を変更する")
 ShowMessageFace("",0,0,2,106)
 ShowMessage("Please choose a difficulty level.")
 RunCommonEvent(110)
 0()
IfPlayerPicksChoice(2,"輪廻に戻る")
 0()
404()
RunCommonEvent(3000)
0()
