﻿
DisplayName "Sheep Forest"



EVENT   1
 PAGE   1
  ShowMessageFace("hituzi_fc1",3,0,2,1)
  ShowMessage("\\n<Head Sheep>Uehehehe... What do you want?")
  If(1,1086,0,2,0)
   ShowChoices(strings("I want a luxury carpet","I want to talk","Nothing"),2)
   IfPlayerPicksChoice(0,null)
    ShowMessageFace("vgirl_fc1",0,0,2,2)
    ShowMessage("\\n<Vanilla>I would like to order a red carpet befitting of a royal palace. I'll request for your price via check.")
    ShowMessageFace("hituzi_fc1",3,0,2,3)
    ShowMessage("\\n<Head Sheep>Uehehehe, thanks for your business.\nAll right, here we go again...")
    205(0,bytes(0x04,0x08,0x6f,0x3a,0x13,0x52,0x50,0x47,0x3a,0x3a,0x4d,0x6f,0x76,0x65,0x52,0x6f,0x75,0x74,0x65,0x09,0x3a,0x0c,0x40,0x72,0x65,0x70,0x65,0x61,0x74,0x46,0x3a,0x0f,0x40,0x73,0x6b,0x69,0x70,0x70,0x61,0x62,0x6c,0x65,0x46,0x3a,0x0a,0x40,0x77,0x61,0x69,0x74,0x54,0x3a,0x0a,0x40,0x6c,0x69,0x73,0x74,0x5b,0x07,0x6f,0x3a,0x15,0x52,0x50,0x47,0x3a,0x3a,0x4d,0x6f,0x76,0x65,0x43,0x6f,0x6d,0x6d,0x61,0x6e,0x64,0x07,0x3a,0x0a,0x40,0x63,0x6f,0x64,0x65,0x69,0x17,0x3a,0x10,0x40,0x70,0x61,0x72,0x61,0x6d,0x65,0x74,0x65,0x72,0x73,0x5b,0x00,0x6f,0x3b,0x0a,0x07,0x3b,0x0b,0x69,0x00,0x3b,0x0c,0x5b,0x00))
    ShowMessageFace("hituzi_fc1",3,0,2,4)
    ShowMessage("\\n<Head Sheep>...Steward! Get to work!")
    205(5,bytes(0x04,0x08,0x6f,0x3a,0x13,0x52,0x50,0x47,0x3a,0x3a,0x4d,0x6f,0x76,0x65,0x52,0x6f,0x75,0x74,0x65,0x09,0x3a,0x0c,0x40,0x72,0x65,0x70,0x65,0x61,0x74,0x46,0x3a,0x0f,0x40,0x73,0x6b,0x69,0x70,0x70,0x61,0x62,0x6c,0x65,0x46,0x3a,0x0a,0x40,0x77,0x61,0x69,0x74,0x54,0x3a,0x0a,0x40,0x6c,0x69,0x73,0x74,0x5b,0x08,0x6f,0x3a,0x15,0x52,0x50,0x47,0x3a,0x3a,0x4d,0x6f,0x76,0x65,0x43,0x6f,0x6d,0x6d,0x61,0x6e,0x64,0x07,0x3a,0x0a,0x40,0x63,0x6f,0x64,0x65,0x69,0x13,0x3a,0x10,0x40,0x70,0x61,0x72,0x61,0x6d,0x65,0x74,0x65,0x72,0x73,0x5b,0x07,0x69,0x00,0x69,0x00,0x6f,0x3b,0x0a,0x07,0x3b,0x0b,0x69,0x13,0x3b,0x0c,0x5b,0x07,0x69,0x00,0x69,0x00,0x6f,0x3b,0x0a,0x07,0x3b,0x0b,0x69,0x00,0x3b,0x0c,0x5b,0x00))
    ShowMessageFace("hituzi_fc1",3,0,2,5)
    ShowMessage("\\n<Steward>Hey, Mutton, Get over here!")
    205(6,bytes(0x04,0x08,0x6f,0x3a,0x13,0x52,0x50,0x47,0x3a,0x3a,0x4d,0x6f,0x76,0x65,0x52,0x6f,0x75,0x74,0x65,0x09,0x3a,0x0c,0x40,0x72,0x65,0x70,0x65,0x61,0x74,0x46,0x3a,0x0f,0x40,0x73,0x6b,0x69,0x70,0x70,0x61,0x62,0x6c,0x65,0x46,0x3a,0x0a,0x40,0x77,0x61,0x69,0x74,0x54,0x3a,0x0a,0x40,0x6c,0x69,0x73,0x74,0x5b,0x0c,0x6f,0x3a,0x15,0x52,0x50,0x47,0x3a,0x3a,0x4d,0x6f,0x76,0x65,0x43,0x6f,0x6d,0x6d,0x61,0x6e,0x64,0x07,0x3a,0x0a,0x40,0x63,0x6f,0x64,0x65,0x69,0x2a,0x3a,0x10,0x40,0x70,0x61,0x72,0x61,0x6d,0x65,0x74,0x65,0x72,0x73,0x5b,0x00,0x6f,0x3b,0x0a,0x07,0x3b,0x0b,0x69,0x22,0x3b,0x0c,0x5b,0x06,0x69,0x09,0x6f,0x3b,0x0a,0x07,0x3b,0x0b,0x69,0x23,0x3b,0x0c,0x5b,0x06,0x69,0x08,0x6f,0x3b,0x0a,0x07,0x3b,0x0b,0x69,0x07,0x3b,0x0c,0x5b,0x00,0x6f,0x3b,0x0a,0x07,0x3b,0x0b,0x69,0x07,0x3b,0x0c,0x5b,0x00,0x6f,0x3b,0x0a,0x07,0x3b,0x0b,0x69,0x09,0x3b,0x0c,0x5b,0x00,0x6f,0x3b,0x0a,0x07,0x3b,0x0b,0x69,0x00,0x3b,0x0c,0x5b,0x00))
    205(5,bytes(0x04,0x08,0x6f,0x3a,0x13,0x52,0x50,0x47,0x3a,0x3a,0x4d,0x6f,0x76,0x65,0x52,0x6f,0x75,0x74,0x65,0x09,0x3a,0x0c,0x40,0x72,0x65,0x70,0x65,0x61,0x74,0x46,0x3a,0x0f,0x40,0x73,0x6b,0x69,0x70,0x70,0x61,0x62,0x6c,0x65,0x46,0x3a,0x0a,0x40,0x77,0x61,0x69,0x74,0x46,0x3a,0x0a,0x40,0x6c,0x69,0x73,0x74,0x5b,0x13,0x6f,0x3a,0x15,0x52,0x50,0x47,0x3a,0x3a,0x4d,0x6f,0x76,0x65,0x43,0x6f,0x6d,0x6d,0x61,0x6e,0x64,0x07,0x3a,0x0a,0x40,0x63,0x6f,0x64,0x65,0x69,0x2a,0x3a,0x10,0x40,0x70,0x61,0x72,0x61,0x6d,0x65,0x74,0x65,0x72,0x73,0x5b,0x00,0x6f,0x3b,0x0a,0x07,0x3b,0x0b,0x69,0x22,0x3b,0x0c,0x5b,0x06,0x69,0x09,0x6f,0x3b,0x0a,0x07,0x3b,0x0b,0x69,0x23,0x3b,0x0c,0x5b,0x06,0x69,0x08,0x6f,0x3b,0x0a,0x07,0x3b,0x0b,0x69,0x09,0x3b,0x0c,0x5b,0x00,0x6f,0x3b,0x0a,0x07,0x3b,0x0b,0x69,0x09,0x3b,0x0c,0x5b,0x00,0x6f,0x3b,0x0a,0x07,0x3b,0x0b,0x69,0x09,0x3b,0x0c,0x5b,0x00,0x6f,0x3b,0x0a,0x07,0x3b,0x0b,0x69,0x09,0x3b,0x0c,0x5b,0x00,0x6f,0x3b,0x0a,0x07,0x3b,0x0b,0x69,0x07,0x3b,0x0c,0x5b,0x00,0x6f,0x3b,0x0a,0x07,0x3b,0x0b,0x69,0x07,0x3b,0x0c,0x5b,0x00,0x6f,0x3b,0x0a,0x07,0x3b,0x0b,0x69,0x07,0x3b,0x0c,0x5b,0x00,0x6f,0x3b,0x0a,0x07,0x3b,0x0b,0x69,0x15,0x3b,0x0c,0x5b,0x00,0x6f,0x3b,0x0a,0x07,0x3b,0x0b,0x69,0x31,0x3b,0x0c,0x5b,0x06,0x6f,0x3a,0x0c,0x52,0x50,0x47,0x3a,0x3a,0x53,0x45,0x08,0x3a,0x0a,0x40,0x6e,0x61,0x6d,0x65,0x49,0x22,0x09,0x4d,0x6f,0x76,0x65,0x06,0x3a,0x06,0x45,0x54,0x3a,0x0b,0x40,0x70,0x69,0x74,0x63,0x68,0x69,0x69,0x3a,0x0c,0x40,0x76,0x6f,0x6c,0x75,0x6d,0x65,0x69,0x55,0x6f,0x3b,0x0a,0x07,0x3b,0x0b,0x69,0x2c,0x3b,0x0c,0x5b,0x00,0x6f,0x3b,0x0a,0x07,0x3b,0x0b,0x69,0x00,0x3b,0x0c,0x5b,0x00))
    205(6,bytes(0x04,0x08,0x6f,0x3a,0x13,0x52,0x50,0x47,0x3a,0x3a,0x4d,0x6f,0x76,0x65,0x52,0x6f,0x75,0x74,0x65,0x09,0x3a,0x0c,0x40,0x72,0x65,0x70,0x65,0x61,0x74,0x46,0x3a,0x0f,0x40,0x73,0x6b,0x69,0x70,0x70,0x61,0x62,0x6c,0x65,0x46,0x3a,0x0a,0x40,0x77,0x61,0x69,0x74,0x54,0x3a,0x0a,0x40,0x6c,0x69,0x73,0x74,0x5b,0x11,0x6f,0x3a,0x15,0x52,0x50,0x47,0x3a,0x3a,0x4d,0x6f,0x76,0x65,0x43,0x6f,0x6d,0x6d,0x61,0x6e,0x64,0x07,0x3a,0x0a,0x40,0x63,0x6f,0x64,0x65,0x69,0x09,0x3a,0x10,0x40,0x70,0x61,0x72,0x61,0x6d,0x65,0x74,0x65,0x72,0x73,0x5b,0x00,0x6f,0x3b,0x0a,0x07,0x3b,0x0b,0x69,0x09,0x3b,0x0c,0x5b,0x00,0x6f,0x3b,0x0a,0x07,0x3b,0x0b,0x69,0x09,0x3b,0x0c,0x5b,0x00,0x6f,0x3b,0x0a,0x07,0x3b,0x0b,0x69,0x09,0x3b,0x0c,0x5b,0x00,0x6f,0x3b,0x0a,0x07,0x3b,0x0b,0x69,0x09,0x3b,0x0c,0x5b,0x00,0x6f,0x3b,0x0a,0x07,0x3b,0x0b,0x69,0x07,0x3b,0x0c,0x5b,0x00,0x6f,0x3b,0x0a,0x07,0x3b,0x0b,0x69,0x07,0x3b,0x0c,0x5b,0x00,0x6f,0x3b,0x0a,0x07,0x3b,0x0b,0x69,0x07,0x3b,0x0c,0x5b,0x00,0x6f,0x3b,0x0a,0x07,0x3b,0x0b,0x69,0x15,0x3b,0x0c,0x5b,0x00,0x6f,0x3b,0x0a,0x07,0x3b,0x0b,0x69,0x31,0x3b,0x0c,0x5b,0x06,0x6f,0x3a,0x0c,0x52,0x50,0x47,0x3a,0x3a,0x53,0x45,0x08,0x3a,0x0a,0x40,0x6e,0x61,0x6d,0x65,0x49,0x22,0x09,0x4d,0x6f,0x76,0x65,0x06,0x3a,0x06,0x45,0x54,0x3a,0x0b,0x40,0x70,0x69,0x74,0x63,0x68,0x69,0x69,0x3a,0x0c,0x40,0x76,0x6f,0x6c,0x75,0x6d,0x65,0x69,0x55,0x6f,0x3b,0x0a,0x07,0x3b,0x0b,0x69,0x2c,0x3b,0x0c,0x5b,0x00,0x6f,0x3b,0x0a,0x07,0x3b,0x0b,0x69,0x00,0x3b,0x0c,0x5b,0x00))
    205(0,bytes(0x04,0x08,0x6f,0x3a,0x13,0x52,0x50,0x47,0x3a,0x3a,0x4d,0x6f,0x76,0x65,0x52,0x6f,0x75,0x74,0x65,0x09,0x3a,0x0c,0x40,0x72,0x65,0x70,0x65,0x61,0x74,0x46,0x3a,0x0f,0x40,0x73,0x6b,0x69,0x70,0x70,0x61,0x62,0x6c,0x65,0x46,0x3a,0x0a,0x40,0x77,0x61,0x69,0x74,0x54,0x3a,0x0a,0x40,0x6c,0x69,0x73,0x74,0x5b,0x07,0x6f,0x3a,0x15,0x52,0x50,0x47,0x3a,0x3a,0x4d,0x6f,0x76,0x65,0x43,0x6f,0x6d,0x6d,0x61,0x6e,0x64,0x07,0x3a,0x0a,0x40,0x63,0x6f,0x64,0x65,0x69,0x18,0x3a,0x10,0x40,0x70,0x61,0x72,0x61,0x6d,0x65,0x74,0x65,0x72,0x73,0x5b,0x00,0x6f,0x3b,0x0a,0x07,0x3b,0x0b,0x69,0x00,0x3b,0x0c,0x5b,0x00))
    Wait(120)
    ShowMessageFace("hituzi_fc1",3,0,2,6)
    ShowMessage("\\n<Mutton>A-a-a-a-a-a-a-aaa!!")
    If(0,6,0)
     ShowMessageFace("sonia_fc3",2,0,2,7)
     ShowMessage("\\n<Sonya>............")
     0()
    EndIf()
    Wait(60)
    250(bytes(0x04,0x08,0x6f,0x3a,0x0c,0x52,0x50,0x47,0x3a,0x3a,0x53,0x45,0x08,0x3a,0x0a,0x40,0x6e,0x61,0x6d,0x65,0x49,0x22,0x09,0x4d,0x6f,0x76,0x65,0x06,0x3a,0x06,0x45,0x54,0x3a,0x0b,0x40,0x70,0x69,0x74,0x63,0x68,0x69,0x69,0x3a,0x0c,0x40,0x76,0x6f,0x6c,0x75,0x6d,0x65,0x69,0x55))
    TeleportEvent(5,0,11,5,2)
    205(5,bytes(0x04,0x08,0x6f,0x3a,0x13,0x52,0x50,0x47,0x3a,0x3a,0x4d,0x6f,0x76,0x65,0x52,0x6f,0x75,0x74,0x65,0x09,0x3a,0x0c,0x40,0x72,0x65,0x70,0x65,0x61,0x74,0x46,0x3a,0x0f,0x40,0x73,0x6b,0x69,0x70,0x70,0x61,0x62,0x6c,0x65,0x46,0x3a,0x0a,0x40,0x77,0x61,0x69,0x74,0x54,0x3a,0x0a,0x40,0x6c,0x69,0x73,0x74,0x5b,0x07,0x6f,0x3a,0x15,0x52,0x50,0x47,0x3a,0x3a,0x4d,0x6f,0x76,0x65,0x43,0x6f,0x6d,0x6d,0x61,0x6e,0x64,0x07,0x3a,0x0a,0x40,0x63,0x6f,0x64,0x65,0x69,0x2d,0x3a,0x10,0x40,0x70,0x61,0x72,0x61,0x6d,0x65,0x74,0x65,0x72,0x73,0x5b,0x00,0x6f,0x3b,0x0a,0x07,0x3b,0x0b,0x69,0x00,0x3b,0x0c,0x5b,0x00))
    Wait(60)
    205(0,bytes(0x04,0x08,0x6f,0x3a,0x13,0x52,0x50,0x47,0x3a,0x3a,0x4d,0x6f,0x76,0x65,0x52,0x6f,0x75,0x74,0x65,0x09,0x3a,0x0c,0x40,0x72,0x65,0x70,0x65,0x61,0x74,0x46,0x3a,0x0f,0x40,0x73,0x6b,0x69,0x70,0x70,0x61,0x62,0x6c,0x65,0x46,0x3a,0x0a,0x40,0x77,0x61,0x69,0x74,0x54,0x3a,0x0a,0x40,0x6c,0x69,0x73,0x74,0x5b,0x07,0x6f,0x3a,0x15,0x52,0x50,0x47,0x3a,0x3a,0x4d,0x6f,0x76,0x65,0x43,0x6f,0x6d,0x6d,0x61,0x6e,0x64,0x07,0x3a,0x0a,0x40,0x63,0x6f,0x64,0x65,0x69,0x1e,0x3a,0x10,0x40,0x70,0x61,0x72,0x61,0x6d,0x65,0x74,0x65,0x72,0x73,0x5b,0x00,0x6f,0x3b,0x0a,0x07,0x3b,0x0b,0x69,0x00,0x3b,0x0c,0x5b,0x00))
    ShowMessageFace("hituzi_fc1",3,0,2,8)
    ShowMessage("\\n<Head Sheep>Your order is ready! This is our finest item!")
    250(bytes(0x04,0x08,0x6f,0x3a,0x0c,0x52,0x50,0x47,0x3a,0x3a,0x53,0x45,0x08,0x3a,0x0a,0x40,0x6e,0x61,0x6d,0x65,0x49,0x22,0x0a,0x49,0x74,0x65,0x6d,0x31,0x06,0x3a,0x06,0x45,0x54,0x3a,0x0b,0x40,0x70,0x69,0x74,0x63,0x68,0x69,0x69,0x3a,0x0c,0x40,0x76,0x6f,0x6c,0x75,0x6d,0x65,0x69,0x55))
    ChangeInventory_Item(559,0,0,1)
    ShowMessageFace("vgirl_fc1",0,0,2,9)
    ShowMessage("\\n<Vanilla>Okay, we've got the carpet!\nNow then, let's head back to Sabasa!")
    221()
    Wait(60)
    TeleportPlayer(0,477,161,20,8,2)
    ChangeInventory_Item(559,1,0,1)
    ChangeVariable(1086,1086,0,0,3)
    222()
    ShowMessageFace("queenvampire_fc1",0,0,2,10)
    ShowMessage("\\n<Queen Vampire>Yes, this looks very good indeed.\nAfter this, we'll need to arrange for the tables and chairs... and lastly, the procurement of liquor.")
    ShowMessageFace("queenvampire_fc1",0,0,2,11)
    ShowMessage("\\n<Queen Vampire>The tables, chairs, and cupboards will be brought over from Vampire Castle. I would like to request of you to procure the liquor.")
    ShowMessageFace("queenvampire_fc1",0,0,2,12)
    ShowMessage("\\n<Queen Vampire>Of course, I'm not talking about cheap alcohol.\nI ask for the finest liquor.")
    ShowMessageFace("vgirl_fc1",0,0,2,13)
    ShowMessage("\\n<Vanilla>Then we should talk with the Brewers Guild...\nRather, it might be better to negotiate directly with the organization that manages it.")
    If(0,6,0)
     ShowMessageFace("sonia_fc2",2,0,2,14)
     ShowMessage("\\n<Sonya>The upper organization of the brewery guild... Isn't that Uncle Lazarus' mafia? Should you really get involved with the underworld?")
     0()
    Else()
     ShowMessageFace("ruka_fc1",0,0,2,15)
     ShowMessage("\\n<Luka>The organization that manages the Brewers Guild... Isn't that Uncle Lazarus' mafia? Should you really be getting involved with the underworld...?")
     0()
    EndIf()
    ShowMessageFace("queenvampire_fc1",0,0,2,16)
    ShowMessage("\\n<Queen Vampire>It is of no concern, us vampires have always lived in the darkness. Very well, I shall leave the procurement of liquor to you.")
    ShowMessageFace("queenvampire_fc1",0,0,2,17)
    ShowMessage("\\n<Queen Vampire>In the meantime, I will have the tables and chairs transported. Once the liquor is delivered, the first Vampire Pub will be complete!")
    ShowMessageFace("vgirl_fc1",0,0,2,18)
    ShowMessage("\\n<Vanilla>Then let's go negotiate with Don Father right away!")
    If(0,2196,1)
     If(0,6,0)
      ShowMessageFace("sonia_fc2",2,0,2,19)
      ShowMessage("\\n<Sonya>In that case, we'll have to search for Uncle Lazarus' whereabouts... Isn't he be at a bar somewhere?")
      0()
     Else()
      ShowMessageFace("ruka_fc1",0,0,2,20)
      ShowMessage("\\n<Luka>In that case, we'll have to search for Uncle Lazarus' whereabouts... I imagine he's probably at a bar somewhere.")
      0()
     EndIf()
     0()
    Else()
     ShowMessageFace("lazarus3_fc1",0,0,2,21)
     ShowMessage("\\n<Lazarus>In that case, come to the Pocket Castle...\nI won't be in my hideout at Granduer.")
     0()
    EndIf()
    EndEventProcessing()
    0()
   IfPlayerPicksChoice(1,null)
    JumpToLabel("話")
    0()
   IfPlayerPicksChoice(2,null)
    EndEventProcessing()
    0()
   404()
   0()
  Else()
   ShowChoices(strings("I want to talk","Nothing"),2)
   IfPlayerPicksChoice(0,null)
    JumpToLabel("話")
    0()
   IfPlayerPicksChoice(1,null)
    EndEventProcessing()
    0()
   404()
   0()
  EndIf()
  DefineLabel("話")
  ShowMessageFace("hituzi_fc1",3,0,2,22)
  ShowMessage("\\n<Head Sheep>This is a carpet mill...\nIt's a place where sheeps' shrieks and laments echo throughout the very soul.")
  ShowMessageFace("hituzi_fc1",3,0,2,23)
  ShowMessage("\\n<Head Sheep>If you want a carpet, you'll need to place an order for one. We guarantee the highest quality in the world...")
  If(1,1086,0,2,5)
   ShowMessageFace("ruka_fc1",0,0,2,24)
   ShowMessage("\\n<Luka>We don't particularly need a carpet...")
   0()
  EndIf()
  EndEventProcessing()
  0()



EVENT   2
 PAGE   1
  250(bytes(0x04,0x08,0x6f,0x3a,0x0c,0x52,0x50,0x47,0x3a,0x3a,0x53,0x45,0x08,0x3a,0x0a,0x40,0x6e,0x61,0x6d,0x65,0x49,0x22,0x09,0x4d,0x6f,0x76,0x65,0x06,0x3a,0x06,0x45,0x54,0x3a,0x0b,0x40,0x70,0x69,0x74,0x63,0x68,0x69,0x69,0x3a,0x0c,0x40,0x76,0x6f,0x6c,0x75,0x6d,0x65,0x69,0x55))
  TeleportPlayer(0,2,308,242,0,0)
  0()



EVENT   3
 PAGE   1
  250(bytes(0x04,0x08,0x6f,0x3a,0x0c,0x52,0x50,0x47,0x3a,0x3a,0x53,0x45,0x08,0x3a,0x0a,0x40,0x6e,0x61,0x6d,0x65,0x49,0x22,0x09,0x4d,0x6f,0x76,0x65,0x06,0x3a,0x06,0x45,0x54,0x3a,0x0b,0x40,0x70,0x69,0x74,0x63,0x68,0x69,0x69,0x3a,0x0c,0x40,0x76,0x6f,0x6c,0x75,0x6d,0x65,0x69,0x55))
  TeleportPlayer(0,2,308,242,0,0)
  0()



EVENT   4
 PAGE   1
  250(bytes(0x04,0x08,0x6f,0x3a,0x0c,0x52,0x50,0x47,0x3a,0x3a,0x53,0x45,0x08,0x3a,0x0a,0x40,0x6e,0x61,0x6d,0x65,0x49,0x22,0x09,0x4d,0x6f,0x76,0x65,0x06,0x3a,0x06,0x45,0x54,0x3a,0x0b,0x40,0x70,0x69,0x74,0x63,0x68,0x69,0x69,0x3a,0x0c,0x40,0x76,0x6f,0x6c,0x75,0x6d,0x65,0x69,0x55))
  TeleportPlayer(0,2,308,242,0,0)
  0()



EVENT   5
 PAGE   1
  ShowMessageFace("hituzi_fc1",3,0,2,1)
  ShowMessage("\\n<Steward>From here on, it's forbidden for anyone but sheep to enter. Uehehehehe...")
  0()



EVENT   6
 PAGE   1
  If(1,1086,0,2,2)
   ShowMessageFace("hituzi_fc1",3,0,2,1)
   ShowMessage("\\n<Mutton>Dona-dona-dooona♪ Dooonaaa♪")
   ShowMessageFace("hituzi_fc1",3,0,2,2)
   ShowMessage("\\n<Mutton>I'm going to be eaten...")
   EndEventProcessing()
   0()
  EndIf()
  If(1,1086,0,3,1)
   ShowMessageFace("hituzi_fc1",3,0,2,3)
   ShowMessage("\\n<Mutton>I regret that I've been violated...")
   EndEventProcessing()
   0()
  EndIf()
  0()



EVENT   7
 PAGE   1
  ShowMessageFace("hituzi_fc1",3,0,2,1)
  ShowMessage("\\n<Sheepy>It's a woolly paradise that's home to lots of sheep.")
  0()



EVENT   8
 PAGE   1
  ShowMessageFace("hituzi_fc1",3,0,2,1)
  ShowMessage("\\n<Red Rum>Want to eat some mutton?")
  ShowChoices(strings("I want to eat","I don't want to eat"),2)
  IfPlayerPicksChoice(0,null)
   ShowMessageFace("hituzi_fc1",3,0,2,2)
   ShowMessage("\\n<Red Rum>Then let's go hunting.\nHehehe...")
   0()
  IfPlayerPicksChoice(1,null)
   If(4,41,0)
    ShowMessageFace("stein_fc2",0,0,2,3)
    ShowMessage("\\n<Promestein>No, I'll pass.")
    0()
   EndIf()
   ShowMessageFace("hituzi_fc1",3,0,2,4)
   ShowMessage("\\n<Red Rum>That's a shame...")
   0()
  404()
  0()



EVENT   9
 PAGE   1
  ShowMessageFace("hituzi_fc1",3,0,2,1)
  ShowMessage("\\n<Ram>Don't get too wet! ♪")
  0()



EVENT   10
 PAGE   1
  ShowMessageFace("hituzi_fc1",3,0,2,1)
  ShowMessage("\\n<Temujin>Gen♪ Gen♪ Genghis Khan♪")
  0()



EVENT   11
 PAGE   1
  ShowMessageFace("",0,0,2,1)
  ShowMessage("\\n<Sheep>Baaa!")
  0()



EVENT   12
 PAGE   1
  ShowMessageFace("",0,0,2,1)
  ShowMessage("\\n<Sheep>Baaa!")
  0()



EVENT   13
 PAGE   1
  ShowMessageFace("hituzi_fc1",3,0,2,1)
  ShowMessage("\\n<Hituzi>Soft carpets are Sheep Forest's local specialty. Naturally, they're made from our wool...")
  0()



EVENT   14
 PAGE   1
  ShowMessageFace("",0,0,2,1)
  ShowMessage("\\n<Sheep>Baaa!")
  0()



EVENT   15
 PAGE   1
  ShowMessageFace("hituzi_fc1",3,0,2,1)
  ShowMessage("\\n<Boozer>Lots of sheep live peacefully in Sheep Forest.\nUehehehehe...")
  0()



EVENT   16
 PAGE   1
  ShowMessageFace("hituzi_fc1",3,0,2,1)
  ShowMessage("\\n<Basho>The sound of the pond!\nAs the sheep...\nJump in!")
  ShowMessageFace("hituzi_fc1",3,0,2,2)
  ShowMessage("\\n<Basho>Yeah, I got drunk and jumped in. Now I'm soaking!")
  ShowMessageFace("hituzi_fc1",1,0,2,3)
  ShowMessage("\\n<Basho>...Miss Sheep is wet.")
  0()



EVENT   17
 PAGE   1
  ShowMessageFace("hituzi_fc1",3,0,2,1)
  ShowMessage("\\n<Buffalo>Uraa! Have a drink!")
  0()



EVENT   18
 PAGE   1
  ShowMessageFace("hituzi_fc1",3,0,2,1)
  ShowMessage("\\n<Paraiso>This is a paradise for us sheep!")
  ShowMessageFace("hituzi_fc1",3,0,2,2)
  ShowMessage("\\n<Paraiso>...Until you get shaved, anyway.")
  0()



EVENT   19
 PAGE   1
  ShowMessageFace("hituzi_fc1",3,0,2,1)
  ShowMessage("\\n<Woolless>Unspeakable things happen here.\nAlmost every day, our wool...our wool...")
  ShowMessageFace("hituzi_fc1",3,0,2,2)
  ShowMessage("\\n<Woolless>Nobody will want to marry me anymore...")
  0()



EVENT   20
 PAGE   1
  ShowMessageFace("hituzi_fc1",3,0,2,1)
  ShowMessage("\\n<Inebriate>If you go north from here, you'll land on a beach.\nFrom there, go east to reach the Noah region's southernmost village, Finoa.")
  0()
